{
  "stvLocationIntegrationPayer" : {
    "_id" : "wm-stvLocationIntegrationPayer-wm.Variable-1539156824339",
    "name" : "stvLocationIntegrationPayer",
    "owner" : "Page",
    "category" : "wm.Variable",
    "dataBinding" : [ ],
    "dataSet" : [ {
      "payer" : {
        "type" : "commercial",
        "name" : "Blue Cross Blue Shield",
        "nameFromEhr" : "test",
        "description" : "Blue Cross Blue Shield is a commercial payer",
        "defaultNpi" : "23432435221300"
      },
      "payerNetwork" : {
        "network" : "in-network",
        "networkCodeFromEhr" : "24234"
      },
      "payerContract" : {
        "contractName" : "test contract",
        "description" : "test description",
        "startDate" : "2018-10-10",
        "endDate" : "2020-10-10"
      },
      "payerContractDetails" : {
        "allowable" : "test",
        "description" : "test description"
      }
    }, {
      "payer" : {
        "type" : "commercial",
        "name" : "Blue Cross Blue Shield",
        "nameFromEhr" : "test",
        "description" : "Blue Cross Blue Shield is a commercial payer",
        "defaultNpi" : "23432435221300"
      },
      "payerNetwork" : {
        "network" : "in-network",
        "networkCodeFromEhr" : "24234"
      },
      "payerContract" : {
        "contractName" : "test contract",
        "description" : "test description",
        "startDate" : "2018-10-10",
        "endDate" : "2020-10-10"
      },
      "payerContractDetails" : {
        "allowable" : "test",
        "description" : "test description"
      }
    }, {
      "payer" : {
        "type" : "commercial",
        "name" : "Blue Cross Blue Shield",
        "nameFromEhr" : "test",
        "description" : "Blue Cross Blue Shield is a commercial payer",
        "defaultNpi" : "23432435221300"
      },
      "payerNetwork" : {
        "network" : "in-network",
        "networkCodeFromEhr" : "24234"
      },
      "payerContract" : {
        "contractName" : "test contract",
        "description" : "test description",
        "startDate" : "2018-10-10",
        "endDate" : "2020-10-10"
      },
      "payerContractDetails" : {
        "allowable" : "test",
        "description" : "test description"
      }
    }, {
      "payer" : {
        "type" : "commercial",
        "name" : "Blue Cross Blue Shield",
        "nameFromEhr" : "test",
        "description" : "Blue Cross Blue Shield is a commercial payer",
        "defaultNpi" : "23432435221300"
      },
      "payerNetwork" : {
        "network" : "in-network",
        "networkCodeFromEhr" : "24234"
      },
      "payerContract" : {
        "contractName" : "test contract",
        "description" : "test description",
        "startDate" : "2018-10-10",
        "endDate" : "2020-10-10"
      },
      "payerContractDetails" : {
        "allowable" : "test",
        "description" : "test description"
      }
    }, {
      "payer" : {
        "type" : "commercial",
        "name" : "Blue Cross Blue Shield",
        "nameFromEhr" : "test",
        "description" : "Blue Cross Blue Shield is a commercial payer",
        "defaultNpi" : "23432435221300"
      },
      "payerNetwork" : {
        "network" : "in-network",
        "networkCodeFromEhr" : "24234"
      },
      "payerContract" : {
        "contractName" : "test contract",
        "description" : "test description",
        "startDate" : "2018-10-10",
        "endDate" : "2020-10-10"
      },
      "payerContractDetails" : {
        "allowable" : "test",
        "description" : "test description"
      }
    }, {
      "payer" : {
        "type" : "commercial",
        "name" : "Blue Cross Blue Shield",
        "nameFromEhr" : "test",
        "description" : "Blue Cross Blue Shield is a commercial payer",
        "defaultNpi" : "23432435221300"
      },
      "payerNetwork" : {
        "network" : "in-network",
        "networkCodeFromEhr" : "24234"
      },
      "payerContract" : {
        "contractName" : "test contract",
        "description" : "test description",
        "startDate" : "2018-10-10",
        "endDate" : "2020-10-10"
      },
      "payerContractDetails" : {
        "allowable" : "test",
        "description" : "test description"
      }
    }, {
      "payer" : {
        "type" : "commercial",
        "name" : "Blue Cross Blue Shield",
        "nameFromEhr" : "test",
        "description" : "Blue Cross Blue Shield is a commercial payer",
        "defaultNpi" : "23432435221300"
      },
      "payerNetwork" : {
        "network" : "in-network",
        "networkCodeFromEhr" : "24234"
      },
      "payerContract" : {
        "contractName" : "test contract",
        "description" : "test description",
        "startDate" : "2018-10-10",
        "endDate" : "2020-10-10"
      },
      "payerContractDetails" : {
        "allowable" : "test",
        "description" : "test description"
      }
    } ],
    "type" : "string",
    "isList" : true,
    "saveInPhonegap" : false
  }
}