{
  "swagger" : "2.0",
  "info" : {
    "version" : "2.0",
    "x-WM-USE_PROXY_FOR_WEB" : true,
    "x-WM-USE_PROXY_FOR_MOBILE" : true,
    "x-WM-API_ID" : "3f2f598b-cef0-4538-8f45-d5c7d57fa6b4",
    "x-WM-SERVICE_ID" : "healthipass",
    "x-WM-SERVICE_TYPE" : "RestService"
  },
  "host" : "hipxdev-app.healthipass.com",
  "basePath" : "",
  "tags" : [ {
    "name" : "RestServiceVirtualController",
    "description" : "Rest service swagger documentation"
  } ],
  "schemes" : [ "http" ],
  "paths" : {
    "/clientLocationIntegrationList/invoke/services/HIP/HipClientLocationIntegration" : {
      "get" : {
        "tags" : [ "RestServiceVirtualController" ],
        "operationId" : "clientLocationIntegrationList_RestServiceVirtualController-invoke",
        "consumes" : [ "application/json" ],
        "parameters" : [ {
          "name" : "q",
          "in" : "query",
          "required" : false,
          "type" : "string",
          "format" : "string"
        }, {
          "name" : "size",
          "in" : "query",
          "required" : false,
          "type" : "string",
          "format" : "string"
        }, {
          "name" : "page",
          "in" : "query",
          "required" : false,
          "type" : "string",
          "format" : "string"
        }, {
          "name" : "sort",
          "in" : "query",
          "required" : false,
          "type" : "string",
          "format" : "string"
        } ],
        "responses" : {
          "200" : {
            "description" : "Success",
            "schema" : {
              "$ref" : "#/definitions/RootResponse"
            }
          }
        },
        "x-WM-METHOD_NAME" : "invoke",
        "x-WM-ACCESS_SPECIFIER" : "APP_ONLY"
      },
      "x-WM-BASE_PATH" : "/clientLocationIntegrationList/invoke/services/HIP/HipClientLocationIntegration",
      "x-WM-TAG" : "RestServiceVirtualController",
      "x-WM-RELATIVE_PATH" : "",
      "x-WM-COMPLETE_PATH" : "${rest.clientLocationIntegrationList.scheme}://${rest.clientLocationIntegrationList.host}${rest.clientLocationIntegrationList.basepath}/services/HIP/HipClientLocationIntegration"
    }
  },
  "definitions" : {
    "hipClient" : {
      "required" : [ "businessName", "code", "createdBy", "createdDateTime", "id", "shortName", "status", "updatedBy", "updatedDateTime", "website" ],
      "properties" : {
        "website" : {
          "type" : "string"
        },
        "code" : {
          "type" : "string"
        },
        "updatedBy" : {
          "type" : "integer",
          "format" : "int32"
        },
        "createdBy" : {
          "type" : "integer",
          "format" : "int32"
        },
        "businessName" : {
          "type" : "string"
        },
        "createdDateTime" : {
          "type" : "integer",
          "format" : "int64"
        },
        "id" : {
          "type" : "integer",
          "format" : "int32"
        },
        "shortName" : {
          "type" : "string"
        },
        "status" : {
          "type" : "string"
        },
        "updatedDateTime" : {
          "type" : "integer",
          "format" : "int64"
        }
      },
      "x-WM-FULLY_QUALIFIED_NAME" : "clientLocationIntegrationList.hipClient",
      "x-WM-TAGS" : [ "RestServiceVirtualController" ]
    },
    "hipIntegration" : {
      "required" : [ "authType", "category", "createdBy", "createdDateTime", "description", "endPoint", "id", "name", "requestType", "responseType", "shortCode", "updatedBy", "updatedDateTime" ],
      "properties" : {
        "updatedBy" : {
          "type" : "string"
        },
        "requestType" : {
          "type" : "string"
        },
        "description" : {
          "type" : "string"
        },
        "createdDateTime" : {
          "type" : "integer",
          "format" : "int64"
        },
        "updatedDateTime" : {
          "type" : "integer",
          "format" : "int64"
        },
        "endPoint" : {
          "type" : "string"
        },
        "responseType" : {
          "type" : "string"
        },
        "createdBy" : {
          "type" : "integer",
          "format" : "int32"
        },
        "name" : {
          "type" : "string"
        },
        "id" : {
          "type" : "integer",
          "format" : "int32"
        },
        "category" : {
          "type" : "string"
        },
        "authType" : {
          "type" : "string"
        },
        "shortCode" : {
          "type" : "string"
        }
      },
      "x-WM-FULLY_QUALIFIED_NAME" : "clientLocationIntegrationList.hipIntegration",
      "x-WM-TAGS" : [ "RestServiceVirtualController" ]
    },
    "hipClientLocation" : {
      "required" : [ "address1", "address2", "city", "clientId", "createdBy", "createdDateTime", "ehrLocationId", "ehrLocationName", "hipClient", "hipClientLocationByParentLocationId", "hipState", "hipTimezone", "id", "locationDescription", "locationName", "locationStatus", "parentLocationId", "shortLocationName", "stateId", "timezoneId", "updatedBy", "updatedDateTime", "zip" ],
      "properties" : {
        "zip" : {
          "type" : "string"
        },
        "hipClient" : {
          "$ref" : "#/definitions/hipClient"
        },
        "parentLocationId" : {
          "type" : "string"
        },
        "clientId" : {
          "type" : "integer",
          "format" : "int32"
        },
        "locationName" : {
          "type" : "string"
        },
        "updatedBy" : {
          "type" : "string"
        },
        "address2" : {
          "type" : "string"
        },
        "city" : {
          "type" : "string"
        },
        "address1" : {
          "type" : "string"
        },
        "hipClientLocationByParentLocationId" : {
          "type" : "string"
        },
        "locationDescription" : {
          "type" : "string"
        },
        "stateId" : {
          "type" : "integer",
          "format" : "int32"
        },
        "createdDateTime" : {
          "type" : "integer",
          "format" : "int64"
        },
        "hipState" : {
          "$ref" : "#/definitions/hipState"
        },
        "updatedDateTime" : {
          "type" : "integer",
          "format" : "int64"
        },
        "locationStatus" : {
          "type" : "string"
        },
        "ehrLocationId" : {
          "type" : "string"
        },
        "createdBy" : {
          "type" : "string"
        },
        "shortLocationName" : {
          "type" : "string"
        },
        "timezoneId" : {
          "type" : "integer",
          "format" : "int32"
        },
        "hipTimezone" : {
          "$ref" : "#/definitions/hipTimezone"
        },
        "id" : {
          "type" : "integer",
          "format" : "int32"
        },
        "ehrLocationName" : {
          "type" : "string"
        }
      },
      "x-WM-FULLY_QUALIFIED_NAME" : "clientLocationIntegrationList.hipClientLocation",
      "x-WM-TAGS" : [ "RestServiceVirtualController" ]
    },
    "contentEntryItem" : {
      "required" : [ "clientLocationId", "createdBy", "createdDateTime", "description", "hipClientLocation", "hipIntegration", "id", "integrationId", "status", "updatedBy", "updatedDateTime" ],
      "properties" : {
        "updatedBy" : {
          "type" : "integer",
          "format" : "int32"
        },
        "hipIntegration" : {
          "$ref" : "#/definitions/hipIntegration"
        },
        "createdBy" : {
          "type" : "integer",
          "format" : "int32"
        },
        "hipClientLocation" : {
          "$ref" : "#/definitions/hipClientLocation"
        },
        "integrationId" : {
          "type" : "integer",
          "format" : "int32"
        },
        "description" : {
          "type" : "string"
        },
        "createdDateTime" : {
          "type" : "integer",
          "format" : "int64"
        },
        "clientLocationId" : {
          "type" : "integer",
          "format" : "int32"
        },
        "id" : {
          "type" : "integer",
          "format" : "int32"
        },
        "status" : {
          "type" : "string"
        },
        "updatedDateTime" : {
          "type" : "integer",
          "format" : "int64"
        }
      },
      "x-WM-FULLY_QUALIFIED_NAME" : "clientLocationIntegrationList.contentEntryItem",
      "x-WM-TAGS" : [ "RestServiceVirtualController" ]
    },
    "hipTimezone" : {
      "required" : [ "createdBy", "createdDateTime", "gmtOffset", "id", "timezoneName", "updatedBy", "updatedDateTime" ],
      "properties" : {
        "updatedBy" : {
          "type" : "string"
        },
        "createdBy" : {
          "type" : "integer",
          "format" : "int32"
        },
        "gmtOffset" : {
          "type" : "string"
        },
        "timezoneName" : {
          "type" : "string"
        },
        "createdDateTime" : {
          "type" : "integer",
          "format" : "int64"
        },
        "id" : {
          "type" : "integer",
          "format" : "int32"
        },
        "updatedDateTime" : {
          "type" : "integer",
          "format" : "int64"
        }
      },
      "x-WM-FULLY_QUALIFIED_NAME" : "clientLocationIntegrationList.hipTimezone",
      "x-WM-TAGS" : [ "RestServiceVirtualController" ]
    },
    "sortEntryItem" : {
      "required" : [ "ascending", "direction", "ignoreCase", "nullHandling", "property" ],
      "properties" : {
        "nullHandling" : {
          "type" : "string"
        },
        "ignoreCase" : {
          "type" : "boolean"
        },
        "property" : {
          "type" : "string"
        },
        "ascending" : {
          "type" : "boolean"
        },
        "direction" : {
          "type" : "string"
        }
      },
      "x-WM-FULLY_QUALIFIED_NAME" : "clientLocationIntegrationList.sortEntryItem",
      "x-WM-TAGS" : [ "RestServiceVirtualController" ]
    },
    "hipCountry" : {
      "required" : [ "countryLongName", "countryName", "createdBy", "createdDateTime", "id", "iso2code", "iso3code", "updatedBy", "updatedDateTime" ],
      "properties" : {
        "updatedBy" : {
          "type" : "string"
        },
        "iso3code" : {
          "type" : "string"
        },
        "createdBy" : {
          "type" : "integer",
          "format" : "int32"
        },
        "countryLongName" : {
          "type" : "string"
        },
        "createdDateTime" : {
          "type" : "integer",
          "format" : "int64"
        },
        "id" : {
          "type" : "integer",
          "format" : "int32"
        },
        "countryName" : {
          "type" : "string"
        },
        "iso2code" : {
          "type" : "string"
        },
        "updatedDateTime" : {
          "type" : "string"
        }
      },
      "x-WM-FULLY_QUALIFIED_NAME" : "clientLocationIntegrationList.hipCountry",
      "x-WM-TAGS" : [ "RestServiceVirtualController" ]
    },
    "hipState" : {
      "required" : [ "countryId", "createdBy", "createdDateTime", "hipCountry", "id", "stateCode", "stateName", "updatedBy", "updatedDateTime" ],
      "properties" : {
        "updatedBy" : {
          "type" : "string"
        },
        "stateName" : {
          "type" : "string"
        },
        "createdBy" : {
          "type" : "integer",
          "format" : "int32"
        },
        "createdDateTime" : {
          "type" : "integer",
          "format" : "int64"
        },
        "stateCode" : {
          "type" : "string"
        },
        "id" : {
          "type" : "integer",
          "format" : "int32"
        },
        "hipCountry" : {
          "$ref" : "#/definitions/hipCountry"
        },
        "countryId" : {
          "type" : "integer",
          "format" : "int32"
        },
        "updatedDateTime" : {
          "type" : "string"
        }
      },
      "x-WM-FULLY_QUALIFIED_NAME" : "clientLocationIntegrationList.hipState",
      "x-WM-TAGS" : [ "RestServiceVirtualController" ]
    },
    "RootResponse" : {
      "required" : [ "content", "first", "last", "number", "numberOfElements", "size", "sort", "totalElements", "totalPages" ],
      "properties" : {
        "number" : {
          "type" : "integer",
          "format" : "int32"
        },
        "last" : {
          "type" : "boolean"
        },
        "numberOfElements" : {
          "type" : "integer",
          "format" : "int32"
        },
        "size" : {
          "type" : "integer",
          "format" : "int32"
        },
        "totalPages" : {
          "type" : "integer",
          "format" : "int32"
        },
        "sort" : {
          "type" : "array",
          "items" : {
            "$ref" : "#/definitions/sortEntryItem"
          },
          "x-WM-IS_LIST" : true
        },
        "content" : {
          "type" : "array",
          "items" : {
            "$ref" : "#/definitions/contentEntryItem"
          },
          "x-WM-IS_LIST" : true
        },
        "first" : {
          "type" : "boolean"
        },
        "totalElements" : {
          "type" : "integer",
          "format" : "int32"
        }
      },
      "x-WM-FULLY_QUALIFIED_NAME" : "clientLocationIntegrationList.RootResponse",
      "x-WM-TAGS" : [ "RestServiceVirtualController" ]
    }
  }
}