{
  "swagger" : "2.0",
  "info" : {
    "version" : "2.0",
    "x-WM-USE_PROXY_FOR_WEB" : true,
    "x-WM-USE_PROXY_FOR_MOBILE" : true,
    "x-WM-API_ID" : "3e87948b-5d98-46cd-adb8-5673b29753b4",
    "x-WM-SERVICE_ID" : "healthipass",
    "x-WM-SERVICE_TYPE" : "RestService"
  },
  "host" : "dev-hipx-services.healthipass.internal:8080",
  "basePath" : "",
  "tags" : [ {
    "name" : "RestServiceVirtualController",
    "description" : "Rest service swagger documentation"
  } ],
  "schemes" : [ "http" ],
  "paths" : {
    "/createAsset/invoke/assets" : {
      "post" : {
        "tags" : [ "RestServiceVirtualController" ],
        "operationId" : "createAsset_RestServiceVirtualController-invoke",
        "consumes" : [ "application/json" ],
        "parameters" : [ {
          "in" : "body",
          "name" : "RequestBody",
          "description" : "RequestBody",
          "required" : false,
          "schema" : {
            "$ref" : "#/definitions/RootRequest"
          },
          "x-WM-FULLY_QUALIFIED_TYPE" : "java.lang.Object"
        } ],
        "responses" : {
          "200" : {
            "description" : "Success",
            "schema" : {
              "$ref" : "#/definitions/RootResponse"
            }
          }
        },
        "x-WM-METHOD_NAME" : "invoke",
        "x-WM-ACCESS_SPECIFIER" : "APP_ONLY"
      },
      "x-WM-BASE_PATH" : "/createAsset/invoke/assets",
      "x-WM-TAG" : "RestServiceVirtualController",
      "x-WM-RELATIVE_PATH" : "",
      "x-WM-COMPLETE_PATH" : "${rest.createAsset.scheme}://${rest.createAsset.host}${rest.createAsset.basepath}/assets"
    }
  },
  "definitions" : {
    "RootRequest" : {
      "required" : [ "assetSerialNumber", "assetUdid", "inUse" ],
      "properties" : {
        "assetSerialNumber" : {
          "type" : "string"
        },
        "inUse" : {
          "type" : "string"
        },
        "assetUdid" : {
          "type" : "string"
        }
      },
      "x-WM-FULLY_QUALIFIED_NAME" : "createAsset.RootRequest",
      "x-WM-TAGS" : [ "RestServiceVirtualController" ]
    },
    "RootResponse" : {
      "required" : [ "assetSerialNumber", "assetUdid", "id", "inUse" ],
      "properties" : {
        "assetSerialNumber" : {
          "type" : "string"
        },
        "inUse" : {
          "type" : "string"
        },
        "id" : {
          "type" : "integer",
          "format" : "int32"
        },
        "assetUdid" : {
          "type" : "string"
        }
      },
      "x-WM-FULLY_QUALIFIED_NAME" : "createAsset.RootResponse",
      "x-WM-TAGS" : [ "RestServiceVirtualController" ]
    }
  }
}