{
  "stvMaritalStatusList" : {
    "_id" : "wm-stvEthnicityList-wm.Variable-1539151738830",
    "name" : "stvMaritalStatusList",
    "owner" : "Page",
    "category" : "wm.Variable",
    "dataBinding" : [ ],
    "dataSet" : [ {
      "id" : 1,
      "clientLocationIntegrationId" : 6,
      "maritalStatus" : "maritalStatus",
      "value" : "test value"
    } ],
    "type" : "entry",
    "isList" : true,
    "saveInPhonegap" : false
  }
}