{
  "clientLocationById" : {
    "_id" : "wm-clientLocationById-wm.ServiceVariable-1535709401486",
    "name" : "clientLocationById",
    "owner" : "Page",
    "category" : "wm.ServiceVariable",
    "dataBinding" : [ {
      "target" : "id",
      "value" : "bind:pageParams.locationId",
      "type" : "string"
    } ],
    "type" : "clientLocationById.RootResponse",
    "service" : "clientLocationById",
    "operation" : "invoke",
    "operationId" : "clientLocationById_RestServiceVirtualController-invoke",
    "operationType" : "get",
    "serviceType" : "RestService",
    "dataSet" : [ ],
    "isList" : false,
    "maxResults" : 20,
    "startUpdate" : true,
    "autoUpdate" : false,
    "inFlightBehavior" : "executeLast",
    "transformationRequired" : false,
    "saveInPhonegap" : false,
    "controller" : "RestServiceVirtual"
  },
  "clientLocationIntegrationConfigList" : {
    "_id" : "wm-ClientLocationIntegrationConfigList-wm.ServiceVariable-1535701547697",
    "name" : "clientLocationIntegrationConfigList",
    "owner" : "Page",
    "category" : "wm.ServiceVariable",
    "dataBinding" : [ {
      "target" : "size",
      "value" : "5",
      "type" : "string"
    }, {
      "target" : "page",
      "value" : "1",
      "type" : "string"
    }, {
      "target" : "sort",
      "value" : "clientLocationId",
      "type" : "string"
    }, {
      "target" : "q",
      "value" : "bind:\"clientLocationId=\"+pageParams.locationId",
      "type" : "string"
    } ],
    "type" : "clientLocationIntegrationConfigList.RootResponse",
    "service" : "clientLocationIntegrationConfigList",
    "operation" : "invoke",
    "operationId" : "clientLocationIntegrationConfigList_RestServiceVirtualController-invoke",
    "operationType" : "get",
    "serviceType" : "RestService",
    "dataSet" : [ ],
    "isList" : false,
    "maxResults" : 20,
    "startUpdate" : true,
    "autoUpdate" : false,
    "inFlightBehavior" : "executeLast",
    "transformationRequired" : false,
    "saveInPhonegap" : false,
    "isDefault" : true,
    "controller" : "RestServiceVirtual"
  },
  "createClientLocationIntegrationConfig" : {
    "_id" : "wm-createClientLocationIntegrationConfig-wm.ServiceVariable-1535706174910",
    "name" : "createClientLocationIntegrationConfig",
    "owner" : "Page",
    "category" : "wm.ServiceVariable",
    "dataBinding" : [ {
      "isList" : false,
      "target" : "RequestBody",
      "value" : "{\n\t\"locationIntegrationConfigId\": null,\n\t\"integrationServiceId\": 1,\n\t\"clientLocationId\": 6,\n\t\"configKey\": \"yahoo\",\n\t\"configValue\": \"third party\",\n\t\"configDescription\": \"service test\",\n\t\"configStatus\": \"Active\",\n\t\"createdBy\": null,\n\t\"createdDatetime\": 1534523172000,\n\t\"updatedBy\": null,\n\t\"lastUpdatedDatetime\": 1534523172000\n}",
      "type" : "createClientLocationIntegrationConfig.RootRequest"
    } ],
    "type" : "createClientLocationIntegrationConfig.RootResponse",
    "service" : "createClientLocationIntegrationConfig",
    "operation" : "invoke",
    "operationId" : "createClientLocationIntegrationConfig_RestServiceVirtualController-invoke",
    "operationType" : "post",
    "serviceType" : "RestService",
    "dataSet" : [ ],
    "isList" : false,
    "maxResults" : 20,
    "onSuccess" : "Widgets.locationIntegrationConfigDialog.close();Variables.clientLocationIntegrationConfigList.invoke()",
    "startUpdate" : false,
    "autoUpdate" : false,
    "inFlightBehavior" : "executeLast",
    "transformationRequired" : false,
    "saveInPhonegap" : false,
    "controller" : "RestServiceVirtual"
  },
  "editClientLocationIntegrationConfig" : {
    "_id" : "wm-editClientLocationIntegrationConfig-wm.ServiceVariable-1535706196973",
    "name" : "editClientLocationIntegrationConfig",
    "owner" : "Page",
    "category" : "wm.ServiceVariable",
    "dataBinding" : [ {
      "isList" : false,
      "target" : "RequestBody",
      "value" : "{\n\t\"locationIntegrationConfigId\": 1,\n\t\"integrationServiceId\": 1,\n\t\"clientLocationId\": 6,\n\t\"configKey\": \"yahoo\",\n\t\"configValue\": \"third party\",\n\t\"configDescription\": \"service test\",\n\t\"configStatus\": \"Active\",\n\t\"createdBy\": null,\n\t\"createdDatetime\": 1534523172000,\n\t\"updatedBy\": null,\n\t\"lastUpdatedDatetime\": 1534523172000\n}",
      "type" : "editClientLocationIntegrationConfig.RootRequest"
    }, {
      "target" : "id",
      "value" : "bind:Variables.stvCreateIntegrationConfig.dataSet.locationIntegrationConfigId",
      "type" : "string"
    } ],
    "type" : "editClientLocationIntegrationConfig.RootResponse",
    "service" : "editClientLocationIntegrationConfig",
    "operation" : "invoke",
    "operationId" : "editClientLocationIntegrationConfig_RestServiceVirtualController-invoke",
    "operationType" : "put",
    "serviceType" : "RestService",
    "dataSet" : [ ],
    "isList" : false,
    "maxResults" : 20,
    "onSuccess" : "Widgets.locationIntegrationConfigDialog.close();Variables.clientLocationIntegrationConfigList.invoke()",
    "startUpdate" : false,
    "autoUpdate" : false,
    "inFlightBehavior" : "executeLast",
    "transformationRequired" : false,
    "saveInPhonegap" : false,
    "controller" : "RestServiceVirtual"
  },
  "integrationServiceList" : {
    "_id" : "wm-integrationServiceList-wm.ServiceVariable-1535705537043",
    "name" : "integrationServiceList",
    "owner" : "Page",
    "category" : "wm.ServiceVariable",
    "dataBinding" : [ ],
    "type" : "integrationServiceList.RootResponse",
    "service" : "integrationServiceList",
    "operation" : "invoke",
    "operationId" : "integrationServiceList_RestServiceVirtualController-invoke",
    "operationType" : "get",
    "serviceType" : "RestService",
    "dataSet" : [ ],
    "isList" : false,
    "maxResults" : 20,
    "startUpdate" : true,
    "autoUpdate" : false,
    "inFlightBehavior" : "executeLast",
    "transformationRequired" : false,
    "saveInPhonegap" : false,
    "controller" : "RestServiceVirtual"
  },
  "stvBreadCrumb" : {
    "_id" : "wm-stvBreadCrumb-wm.Variable-1535709910090",
    "name" : "stvBreadCrumb",
    "owner" : "Page",
    "category" : "wm.Variable",
    "dataBinding" : [ ],
    "dataSet" : [ {
      "page" : "",
      "label" : "Main",
      "icon" : "",
      "link" : "/Main",
      "role" : "",
      "type" : ""
    }, {
      "page" : "Clients",
      "label" : "Client Details",
      "icon" : "",
      "link" : "/Clients",
      "role" : "",
      "type" : ""
    }, {
      "page" : "SettingsClientLocations",
      "label" : "Locations",
      "icon" : "",
      "link" : "/SettingsClientLocations",
      "role" : "",
      "type" : ""
    }, {
      "page" : "",
      "label" : "Location Integration Configuration",
      "icon" : "",
      "link" : "/LocationIntegrationConfiguration",
      "role" : "",
      "type" : ""
    } ],
    "type" : "string",
    "isList" : true,
    "saveInPhonegap" : false
  },
  "stvCreateIntegrationConfig" : {
    "_id" : "wm-stvCreateIntegrationConfig-wm.Variable-1535706711285",
    "name" : "stvCreateIntegrationConfig",
    "owner" : "Page",
    "category" : "wm.Variable",
    "dataBinding" : [ {
      "target" : "integrationServiceId",
      "value" : "bind:Widgets.integrationConfigForm.formWidgets.IntegrationServiceNameSelect.datavalue"
    }, {
      "target" : "configKey",
      "value" : "bind:Widgets.integrationConfigForm.formWidgets.configKeyText.datavalue"
    }, {
      "target" : "configValue",
      "value" : "bind:Widgets.integrationConfigForm.formWidgets.valueText.datavalue"
    }, {
      "target" : "configDescription",
      "value" : "bind:Widgets.integrationConfigForm.formWidgets.descriptionTextarea.datavalue"
    }, {
      "target" : "configStatus",
      "value" : "bind:Widgets.integrationConfigForm.formWidgets.statusSelect.datavalue"
    }, {
      "target" : "clientLocationId",
      "value" : "bind:pageParams.locationId | stringToNumber"
    } ],
    "dataSet" : {
      "locationIntegrationConfigId" : null,
      "integrationServiceId" : "",
      "clientLocationId" : "",
      "configKey" : "",
      "configValue" : "",
      "configDescription" : "",
      "configStatus" : "",
      "createdBy" : null,
      "createdDatetime" : 1534523172000,
      "updatedBy" : null,
      "lastUpdatedDatetime" : 1534523172000
    },
    "type" : "string",
    "isList" : false,
    "saveInPhonegap" : false
  },
  "stvEditIntegrationConfig" : {
    "_id" : "wm-stvEditIntegrationConfig-wm.Variable-1535706733191",
    "name" : "stvEditIntegrationConfig",
    "owner" : "Page",
    "category" : "wm.Variable",
    "dataBinding" : [ ],
    "dataSet" : {
      "locationIntegrationConfigId" : null,
      "integrationServiceId" : "",
      "clientLocationId" : "",
      "configKey" : "",
      "configValue" : "",
      "configDescription" : "",
      "configStatus" : "",
      "createdBy" : null,
      "createdDatetime" : 1534523172000,
      "updatedBy" : null,
      "lastUpdatedDatetime" : 1534523172000
    },
    "type" : "string",
    "isList" : false,
    "saveInPhonegap" : false
  },
  "stvIntegConfigStatus" : {
    "_id" : "wm-stvIntegConfigStatus-wm.Variable-1535704369065",
    "name" : "stvIntegConfigStatus",
    "owner" : "Page",
    "category" : "wm.Variable",
    "dataBinding" : [ ],
    "dataSet" : [ {
      "key" : "Active",
      "dataValue" : "Active"
    }, {
      "key" : "Inactive",
      "dataValue" : "Inactive"
    }, {
      "key" : "Hold",
      "dataValue" : "Hold"
    } ],
    "type" : "string",
    "isList" : true,
    "saveInPhonegap" : false
  }
}