{
  "endpointAddress" : "http://dev-hipx-services.healthipass.internal:8080/paymentMethods/{id}",
  "method" : "PATCH",
  "headers" : { },
  "redirectEnabled" : true,
  "requestBody" : "{\n\n\"description\": \"aaaaaaa\"\n}",
  "queryParams" : { },
  "authDetails" : null,
  "contentType" : "application/json",
  "multiParamInfoList" : null,
  "sampleHttpResponseDetails" : {
    "statusCode" : 0,
    "headers" : { },
    "responseBody" : "{\"id\":7,\"code\":\"cccc\",\"description\":\"aaaaaaa\"}",
    "convertedResponse" : null
  },
  "proxy" : null
}