{
  "swagger" : "2.0",
  "info" : {
    "version" : "2.0",
    "x-WM-USE_PROXY_FOR_WEB" : true,
    "x-WM-USE_PROXY_FOR_MOBILE" : true,
    "x-WM-API_ID" : "a325feb8-bdff-43e2-8762-5781841c9b4b",
    "x-WM-SERVICE_ID" : "healthipass",
    "x-WM-SERVICE_TYPE" : "RestService"
  },
  "host" : "dev-hipx-services.healthipass.internal:8080",
  "basePath" : "",
  "tags" : [ {
    "name" : "RestServiceVirtualController",
    "description" : "Rest service swagger documentation"
  } ],
  "schemes" : [ "http" ],
  "paths" : {
    "/clientLocation/{locationId}/clientLocationContacts" : {
      "get" : {
        "tags" : [ "RestServiceVirtualController" ],
        "operationId" : "contactList_RestServiceVirtualController-invoke",
        "consumes" : [ "application/json" ],
        "parameters" : [ {
          "name" : "sort",
          "in" : "query",
          "required" : false,
          "type" : "string",
          "format" : "string"
        }, {
          "name" : "locationId",
          "in" : "path",
          "required" : true,
          "type" : "string"
        } ],
        "responses" : {
          "200" : {
            "description" : "Success",
            "schema" : {
              "type" : "array",
              "items" : {
                "$ref" : "#/definitions/RootResponseROOTEntryItem"
              },
              "x-WM-IS_LIST" : true
            }
          }
        },
        "x-WM-METHOD_NAME" : "invoke",
        "x-WM-ACCESS_SPECIFIER" : "APP_ONLY"
      },
      "x-WM-BASE_PATH" : "/clientLocation/{locationId}/clientLocationContacts",
      "x-WM-TAG" : "RestServiceVirtualController",
      "x-WM-RELATIVE_PATH" : "",
      "x-WM-COMPLETE_PATH" : "${rest.contactList.scheme}://${rest.contactList.host}${rest.contactList.basepath}/clientLocation/{locationId}/clientLocationContacts"
    }
  },
  "definitions" : {
    "client" : {
      "required" : [ "businessName", "code", "id", "shortName", "status", "website" ],
      "properties" : {
        "website" : {
          "type" : "string"
        },
        "code" : {
          "type" : "string"
        },
        "businessName" : {
          "type" : "string"
        },
        "id" : {
          "type" : "integer",
          "format" : "int32"
        },
        "shortName" : {
          "type" : "string"
        },
        "status" : {
          "type" : "string"
        }
      },
      "x-WM-FULLY_QUALIFIED_NAME" : "contactList.client",
      "x-WM-TAGS" : [ "RestServiceVirtualController" ]
    },
    "timeZone" : {
      "required" : [ "gmtOffset", "id", "timezoneName" ],
      "properties" : {
        "gmtOffset" : {
          "type" : "string"
        },
        "timezoneName" : {
          "type" : "string"
        },
        "id" : {
          "type" : "integer",
          "format" : "int32"
        }
      },
      "x-WM-FULLY_QUALIFIED_NAME" : "contactList.timeZone",
      "x-WM-TAGS" : [ "RestServiceVirtualController" ]
    },
    "contactType" : {
      "required" : [ "id", "type" ],
      "properties" : {
        "id" : {
          "type" : "integer",
          "format" : "int32"
        },
        "type" : {
          "type" : "string"
        }
      },
      "x-WM-FULLY_QUALIFIED_NAME" : "contactList.contactType",
      "x-WM-TAGS" : [ "RestServiceVirtualController" ]
    },
    "RootResponseROOTEntryItem" : {
      "required" : [ "clientLocation", "contactType", "description", "emailId", "firstName", "id", "lastName", "phoneCell", "phoneHome", "phoneWork", "status", "title" ],
      "properties" : {
        "firstName" : {
          "type" : "string"
        },
        "lastName" : {
          "type" : "string"
        },
        "phoneCell" : {
          "type" : "string"
        },
        "phoneWork" : {
          "type" : "string"
        },
        "phoneHome" : {
          "type" : "string"
        },
        "description" : {
          "type" : "string"
        },
        "contactType" : {
          "$ref" : "#/definitions/contactType"
        },
        "emailId" : {
          "type" : "string"
        },
        "id" : {
          "type" : "integer",
          "format" : "int32"
        },
        "title" : {
          "type" : "string"
        },
        "clientLocation" : {
          "$ref" : "#/definitions/clientLocation"
        },
        "status" : {
          "type" : "string"
        }
      },
      "x-WM-FULLY_QUALIFIED_NAME" : "contactList.RootResponseROOTEntryItem",
      "x-WM-TAGS" : [ "RestServiceVirtualController" ]
    },
    "clientLocation" : {
      "required" : [ "address1", "address2", "city", "client", "ehrLocationId", "ehrLocationName", "id", "locationDescription", "locationName", "locationStatus", "parentLocationId", "parentLocationName", "shortLocationName", "state", "timeZone", "zip" ],
      "properties" : {
        "zip" : {
          "type" : "string"
        },
        "parentLocationId" : {
          "type" : "integer",
          "format" : "int32"
        },
        "locationName" : {
          "type" : "string"
        },
        "address2" : {
          "type" : "string"
        },
        "city" : {
          "type" : "string"
        },
        "address1" : {
          "type" : "string"
        },
        "locationDescription" : {
          "type" : "string"
        },
        "timeZone" : {
          "$ref" : "#/definitions/timeZone"
        },
        "locationStatus" : {
          "type" : "string"
        },
        "ehrLocationId" : {
          "type" : "string"
        },
        "client" : {
          "$ref" : "#/definitions/client"
        },
        "shortLocationName" : {
          "type" : "string"
        },
        "parentLocationName" : {
          "type" : "string"
        },
        "id" : {
          "type" : "integer",
          "format" : "int32"
        },
        "state" : {
          "type" : "string"
        },
        "ehrLocationName" : {
          "type" : "string"
        }
      },
      "x-WM-FULLY_QUALIFIED_NAME" : "contactList.clientLocation",
      "x-WM-TAGS" : [ "RestServiceVirtualController" ]
    },
    "RootResponse" : {
      "required" : [ "RootResponseROOT" ],
      "properties" : {
        "RootResponseROOT" : {
          "type" : "array",
          "items" : {
            "$ref" : "#/definitions/RootResponseROOTEntryItem"
          },
          "x-WM-IS_LIST" : true
        }
      },
      "x-WM-FULLY_QUALIFIED_NAME" : "contactList.RootResponse",
      "x-WM-TAGS" : [ "RestServiceVirtualController" ]
    }
  }
}