{
  "basePath" : "${rest.integrationServiceList.basepath}",
  "paths" : {
    "/services/hip/integrationServiceLists" : {
      "x-WM-BASE_PATH" : "/services/hip/integrationServiceLists",
      "x-WM-TAG" : "RestServiceVirtualController",
      "x-WM-RELATIVE_PATH" : "",
      "get" : {
        "x-WM-METHOD_NAME" : "invoke",
        "x-WM-ACCESS_SPECIFIER" : "APP_ONLY",
        "operationId" : "integrationServiceList_RestServiceVirtualController-invoke",
        "responses" : {
          "200" : {
            "schema" : {
              "$ref" : "#/definitions/RootResponse"
            },
            "description" : "Success"
          }
        },
        "parameters" : [ {
          "in" : "query",
          "name" : "size",
          "format" : "string",
          "type" : "string",
          "required" : false
        }, {
          "in" : "query",
          "name" : "page",
          "format" : "string",
          "type" : "string",
          "required" : false
        }, {
          "in" : "query",
          "name" : "sort",
          "format" : "string",
          "type" : "string",
          "required" : false
        }, {
          "in" : "query",
          "name" : "q",
          "format" : "string",
          "type" : "string",
          "required" : false
        } ],
        "tags" : [ "RestServiceVirtualController" ],
        "consumes" : [ "application/json" ]
      },
      "x-WM-COMPLETE_PATH" : "${rest.integrationServiceList.scheme}://${rest.integrationServiceList.host}${rest.integrationServiceList.basepath}/services/hip/integrationServiceLists"
    }
  },
  "host" : "${rest.integrationServiceList.host}",
  "schemes" : [ "${rest.integrationServiceList.scheme}" ],
  "definitions" : {
    "hipIntegration" : {
      "x-WM-FULLY_QUALIFIED_NAME" : "integrationServiceList.hipIntegration",
      "x-WM-TAGS" : [ "RestServiceVirtualController" ],
      "required" : [ "createdBy", "createdDatetime", "integrationAuthType", "integrationCategory", "integrationDescription", "integrationEndPoint", "integrationId", "integrationName", "integrationShortCode", "lastUpdatedDatetime", "requestType", "responseType", "updatedBy" ],
      "properties" : {
        "integrationCategory" : {
          "type" : "string"
        },
        "updatedBy" : {
          "type" : "string"
        },
        "requestType" : {
          "type" : "string"
        },
        "integrationName" : {
          "type" : "string"
        },
        "integrationId" : {
          "format" : "int32",
          "type" : "integer"
        },
        "lastUpdatedDatetime" : {
          "format" : "int64",
          "type" : "integer"
        },
        "integrationDescription" : {
          "type" : "string"
        },
        "responseType" : {
          "type" : "string"
        },
        "createdBy" : {
          "type" : "string"
        },
        "integrationShortCode" : {
          "type" : "string"
        },
        "integrationEndPoint" : {
          "type" : "string"
        },
        "integrationAuthType" : {
          "type" : "string"
        },
        "createdDatetime" : {
          "format" : "int64",
          "type" : "integer"
        }
      }
    },
    "contentEntryItem" : {
      "x-WM-FULLY_QUALIFIED_NAME" : "integrationServiceList.contentEntryItem",
      "x-WM-TAGS" : [ "RestServiceVirtualController" ],
      "required" : [ "createdBy", "createdDatetime", "hipIntegration", "integrationId", "integrationServiceId", "integrationSvcDescription", "integrationSvcEndPoint", "integrationSvcName", "integrationSvcType", "lastUpdatedDatetime", "updatedBy" ],
      "properties" : {
        "updatedBy" : {
          "type" : "string"
        },
        "hipIntegration" : {
          "$ref" : "#/definitions/hipIntegration"
        },
        "createdBy" : {
          "type" : "string"
        },
        "integrationId" : {
          "format" : "int32",
          "type" : "integer"
        },
        "lastUpdatedDatetime" : {
          "format" : "int64",
          "type" : "integer"
        },
        "createdDatetime" : {
          "format" : "int64",
          "type" : "integer"
        },
        "integrationServiceId" : {
          "format" : "int32",
          "type" : "integer"
        },
        "integrationSvcEndPoint" : {
          "type" : "string"
        },
        "integrationSvcType" : {
          "type" : "string"
        },
        "integrationSvcName" : {
          "type" : "string"
        },
        "integrationSvcDescription" : {
          "type" : "string"
        }
      }
    },
    "sortEntryItem" : {
      "x-WM-FULLY_QUALIFIED_NAME" : "integrationServiceList.sortEntryItem",
      "x-WM-TAGS" : [ "RestServiceVirtualController" ],
      "required" : [ "ascending", "direction", "ignoreCase", "nullHandling", "property" ],
      "properties" : {
        "nullHandling" : {
          "type" : "string"
        },
        "ignoreCase" : {
          "type" : "boolean"
        },
        "property" : {
          "type" : "string"
        },
        "ascending" : {
          "type" : "boolean"
        },
        "direction" : {
          "type" : "string"
        }
      }
    },
    "RootResponse" : {
      "x-WM-FULLY_QUALIFIED_NAME" : "integrationServiceList.RootResponse",
      "x-WM-TAGS" : [ "RestServiceVirtualController" ],
      "required" : [ "content", "first", "last", "number", "numberOfElements", "size", "sort", "totalElements", "totalPages" ],
      "properties" : {
        "number" : {
          "format" : "int32",
          "type" : "integer"
        },
        "last" : {
          "type" : "boolean"
        },
        "numberOfElements" : {
          "format" : "int32",
          "type" : "integer"
        },
        "size" : {
          "format" : "int32",
          "type" : "integer"
        },
        "totalPages" : {
          "format" : "int32",
          "type" : "integer"
        },
        "sort" : {
          "x-WM-IS_LIST" : true,
          "type" : "array",
          "items" : {
            "$ref" : "#/definitions/sortEntryItem"
          }
        },
        "content" : {
          "x-WM-IS_LIST" : true,
          "type" : "array",
          "items" : {
            "$ref" : "#/definitions/contentEntryItem"
          }
        },
        "first" : {
          "type" : "boolean"
        },
        "totalElements" : {
          "format" : "int32",
          "type" : "integer"
        }
      }
    }
  },
  "swagger" : "2.0",
  "info" : {
    "x-WM-USE_PROXY_FOR_WEB" : true,
    "x-WM-USE_PROXY_FOR_MOBILE" : true,
    "x-WM-API_ID" : "f2d755d1-fa52-4a54-96f7-8d742ccb5fc3",
    "x-WM-SERVICE_ID" : "healthipass",
    "version" : "2.0",
    "x-WM-SERVICE_TYPE" : "RestService"
  },
  "tags" : [ {
    "name" : "RestServiceVirtualController",
    "description" : "Rest service swagger documentation"
  } ]
}