{
  "basePath" : "${rest.clientLocationById.basepath}",
  "paths" : {
    "/client/{clientId}/locations/{id}" : {
      "x-WM-BASE_PATH" : "/client/{clientId}/locations/{id}",
      "x-WM-TAG" : "RestServiceVirtualController",
      "x-WM-RELATIVE_PATH" : "",
      "get" : {
        "x-WM-METHOD_NAME" : "invoke",
        "x-WM-ACCESS_SPECIFIER" : "APP_ONLY",
        "operationId" : "clientLocationById_RestServiceVirtualController-invoke",
        "responses" : {
          "200" : {
            "schema" : {
              "$ref" : "#/definitions/RootResponse"
            },
            "description" : "Success"
          }
        },
        "parameters" : [ {
          "in" : "path",
          "name" : "clientId",
          "type" : "string",
          "required" : true
        }, {
          "in" : "path",
          "name" : "id",
          "type" : "string",
          "required" : true
        } ],
        "tags" : [ "RestServiceVirtualController" ],
        "consumes" : [ "application/json" ]
      },
      "x-WM-COMPLETE_PATH" : "${rest.clientLocationById.scheme}://${rest.clientLocationById.host}${rest.clientLocationById.basepath}/client/{clientId}/locations/{id}"
    }
  },
  "host" : "${rest.clientLocationById.host}",
  "schemes" : [ "${rest.clientLocationById.scheme}" ],
  "definitions" : {
    "client" : {
      "x-WM-FULLY_QUALIFIED_NAME" : "clientLocationById.client",
      "x-WM-TAGS" : [ "RestServiceVirtualController" ],
      "required" : [ "businessName", "code", "id", "shortName", "status", "website" ],
      "properties" : {
        "website" : {
          "type" : "string"
        },
        "code" : {
          "type" : "string"
        },
        "businessName" : {
          "type" : "string"
        },
        "id" : {
          "format" : "int32",
          "type" : "integer"
        },
        "shortName" : {
          "type" : "string"
        },
        "status" : {
          "type" : "string"
        }
      }
    },
    "timeZone" : {
      "x-WM-FULLY_QUALIFIED_NAME" : "clientLocationById.timeZone",
      "x-WM-TAGS" : [ "RestServiceVirtualController" ],
      "required" : [ "gmtOffset", "id", "timezoneName" ],
      "properties" : {
        "gmtOffset" : {
          "type" : "string"
        },
        "timezoneName" : {
          "type" : "string"
        },
        "id" : {
          "format" : "int32",
          "type" : "integer"
        }
      }
    },
    "RootResponse" : {
      "x-WM-FULLY_QUALIFIED_NAME" : "clientLocationById.RootResponse",
      "x-WM-TAGS" : [ "RestServiceVirtualController" ],
      "required" : [ "address1", "address2", "city", "client", "clientId", "ehrLocationId", "ehrLocationName", "id", "locationDescription", "locationName", "locationStatus", "parentLocationId", "parentLocationName", "shortLocationName", "state", "timeZone", "timeZoneId", "zip" ],
      "properties" : {
        "zip" : {
          "type" : "string"
        },
        "parentLocationId" : {
          "format" : "int32",
          "type" : "integer"
        },
        "clientId" : {
          "format" : "int32",
          "type" : "integer"
        },
        "locationName" : {
          "type" : "string"
        },
        "address2" : {
          "type" : "string"
        },
        "city" : {
          "type" : "string"
        },
        "timeZoneId" : {
          "format" : "int32",
          "type" : "integer"
        },
        "address1" : {
          "type" : "string"
        },
        "locationDescription" : {
          "type" : "string"
        },
        "timeZone" : {
          "$ref" : "#/definitions/timeZone"
        },
        "locationStatus" : {
          "type" : "string"
        },
        "ehrLocationId" : {
          "type" : "string"
        },
        "client" : {
          "$ref" : "#/definitions/client"
        },
        "shortLocationName" : {
          "type" : "string"
        },
        "parentLocationName" : {
          "type" : "string"
        },
        "id" : {
          "format" : "int32",
          "type" : "integer"
        },
        "state" : {
          "type" : "string"
        },
        "ehrLocationName" : {
          "type" : "string"
        }
      }
    }
  },
  "swagger" : "2.0",
  "info" : {
    "x-WM-USE_PROXY_FOR_WEB" : true,
    "x-WM-USE_PROXY_FOR_MOBILE" : true,
    "x-WM-API_ID" : "3c8ef54c-a663-4acd-9786-1456357e8ec3",
    "x-WM-SERVICE_ID" : "healthipass",
    "version" : "2.0",
    "x-WM-SERVICE_TYPE" : "RestService"
  },
  "tags" : [ {
    "name" : "RestServiceVirtualController",
    "description" : "Rest service swagger documentation"
  } ]
}