{
  "endpointAddress" : "http://dev-hipx-services.healthipass.internal:8080/pharmacies/{id}",
  "method" : "PATCH",
  "headers" : { },
  "redirectEnabled" : true,
  "requestBody" : "{\n        \n        \"name\": \"Pharmacies\",\n        \"address1\": \"1452 Street, OAK\",\n        \"address2\": \"test\",\n        \"city\": \"Oak Brook\",\n        \"state\": \"AK\",\n        \"zip\": \"12345\",\n        \"storePhone\": \"4444444\",\n        \"storeFax\": \"123456\"\n    }",
  "queryParams" : { },
  "authDetails" : null,
  "contentType" : "application/json",
  "multiParamInfoList" : null,
  "sampleHttpResponseDetails" : {
    "statusCode" : 200,
    "headers" : {
      "Date" : [ "Mon, 15 Oct 2018 09:46:21 GMT" ],
      "Content-Type" : [ "application/json" ],
      "Transfer-Encoding" : [ "chunked" ],
      "Connection" : [ "keep-alive" ]
    },
    "responseBody" : "{\"id\":8,\"name\":\"Pharmacies\",\"address1\":\"1452 Street, OAK\",\"address2\":\"test\",\"city\":\"Oak Brook\",\"state\":\"AK\",\"zip\":\"12345\",\"storePhone\":\"4444444\",\"storeFax\":\"123456\"}",
    "convertedResponse" : null
  },
  "proxy" : null
}