{
  "swagger" : "2.0",
  "info" : {
    "version" : "2.0",
    "x-WM-USE_PROXY_FOR_WEB" : true,
    "x-WM-USE_PROXY_FOR_MOBILE" : true,
    "x-WM-API_ID" : "68e63675-fd33-40bf-9724-00b5b3a0a659",
    "x-WM-SERVICE_ID" : "healthipass",
    "x-WM-SERVICE_TYPE" : "RestService"
  },
  "host" : "hipxdev-app.healthipass.com",
  "basePath" : "",
  "tags" : [ {
    "name" : "RestServiceVirtualController",
    "description" : "Rest service swagger documentation"
  } ],
  "schemes" : [ "http" ],
  "paths" : {
    "/editClientLocationIntegrationConfig/invoke/services/hip/clientLocationIntegrationConfigs/{id}" : {
      "put" : {
        "tags" : [ "RestServiceVirtualController" ],
        "operationId" : "editClientLocationIntegrationConfig_RestServiceVirtualController-invoke",
        "consumes" : [ "application/json" ],
        "parameters" : [ {
          "in" : "body",
          "name" : "RequestBody",
          "description" : "RequestBody",
          "required" : false,
          "schema" : {
            "$ref" : "#/definitions/RootRequest"
          },
          "x-WM-FULLY_QUALIFIED_TYPE" : "java.lang.Object"
        }, {
          "name" : "id",
          "in" : "path",
          "required" : true,
          "type" : "string"
        } ],
        "responses" : {
          "200" : {
            "description" : "Success",
            "schema" : {
              "$ref" : "#/definitions/RootResponse"
            }
          }
        },
        "x-WM-METHOD_NAME" : "invoke",
        "x-WM-ACCESS_SPECIFIER" : "APP_ONLY"
      },
      "x-WM-BASE_PATH" : "/editClientLocationIntegrationConfig/invoke/services/hip/clientLocationIntegrationConfigs/{id}",
      "x-WM-TAG" : "RestServiceVirtualController",
      "x-WM-RELATIVE_PATH" : "",
      "x-WM-COMPLETE_PATH" : "${rest.editClientLocationIntegrationConfig.scheme}://${rest.editClientLocationIntegrationConfig.host}${rest.editClientLocationIntegrationConfig.basepath}/services/hip/clientLocationIntegrationConfigs/{id}"
    }
  },
  "definitions" : {
    "hipClient" : {
      "required" : [ "clientBusinessName", "clientCode", "clientId", "clientShortName", "clientStatus", "clientWebSite", "createdBy", "createdDatetime", "lastUpdatedDatetime", "updatedBy" ],
      "properties" : {
        "clientId" : {
          "type" : "integer",
          "format" : "int32"
        },
        "updatedBy" : {
          "type" : "integer",
          "format" : "int32"
        },
        "clientBusinessName" : {
          "type" : "string"
        },
        "clientShortName" : {
          "type" : "string"
        },
        "createdBy" : {
          "type" : "integer",
          "format" : "int32"
        },
        "clientCode" : {
          "type" : "string"
        },
        "clientWebSite" : {
          "type" : "string"
        },
        "clientStatus" : {
          "type" : "string"
        },
        "lastUpdatedDatetime" : {
          "type" : "integer",
          "format" : "int64"
        },
        "createdDatetime" : {
          "type" : "integer",
          "format" : "int64"
        }
      },
      "x-WM-FULLY_QUALIFIED_NAME" : "editClientLocationIntegrationConfig.hipClient",
      "x-WM-TAGS" : [ "RestServiceVirtualController" ]
    },
    "hipIntegration" : {
      "required" : [ "createdBy", "createdDatetime", "integrationAuthType", "integrationCategory", "integrationDescription", "integrationEndPoint", "integrationId", "integrationName", "integrationShortCode", "lastUpdatedDatetime", "requestType", "responseType", "updatedBy" ],
      "properties" : {
        "integrationCategory" : {
          "type" : "string"
        },
        "updatedBy" : {
          "type" : "string"
        },
        "requestType" : {
          "type" : "string"
        },
        "integrationName" : {
          "type" : "string"
        },
        "integrationId" : {
          "type" : "integer",
          "format" : "int32"
        },
        "lastUpdatedDatetime" : {
          "type" : "integer",
          "format" : "int64"
        },
        "integrationDescription" : {
          "type" : "string"
        },
        "responseType" : {
          "type" : "string"
        },
        "createdBy" : {
          "type" : "string"
        },
        "integrationShortCode" : {
          "type" : "string"
        },
        "integrationEndPoint" : {
          "type" : "string"
        },
        "integrationAuthType" : {
          "type" : "string"
        },
        "createdDatetime" : {
          "type" : "integer",
          "format" : "int64"
        }
      },
      "x-WM-FULLY_QUALIFIED_NAME" : "editClientLocationIntegrationConfig.hipIntegration",
      "x-WM-TAGS" : [ "RestServiceVirtualController" ]
    },
    "hipClientLocation" : {
      "required" : [ "address1", "address2", "city", "clientId", "clientLocationId", "createdBy", "createdDatetime", "hipClient", "hipClientLocationByParentLocationId", "hipState", "hipTimezone", "lastUpdatedDatetime", "locationDescription", "locationName", "locationStatus", "parentLocationId", "pmLocationId", "pmLocationName", "shortLocationName", "stateId", "timezoneId", "updatedBy", "zip" ],
      "properties" : {
        "zip" : {
          "type" : "string"
        },
        "hipClient" : {
          "$ref" : "#/definitions/hipClient"
        },
        "parentLocationId" : {
          "type" : "string"
        },
        "clientId" : {
          "type" : "integer",
          "format" : "int32"
        },
        "locationName" : {
          "type" : "string"
        },
        "updatedBy" : {
          "type" : "string"
        },
        "address2" : {
          "type" : "string"
        },
        "city" : {
          "type" : "string"
        },
        "address1" : {
          "type" : "string"
        },
        "hipClientLocationByParentLocationId" : {
          "type" : "string"
        },
        "locationDescription" : {
          "type" : "string"
        },
        "stateId" : {
          "type" : "integer",
          "format" : "int32"
        },
        "lastUpdatedDatetime" : {
          "type" : "integer",
          "format" : "int64"
        },
        "clientLocationId" : {
          "type" : "integer",
          "format" : "int32"
        },
        "hipState" : {
          "$ref" : "#/definitions/hipState"
        },
        "locationStatus" : {
          "type" : "string"
        },
        "createdBy" : {
          "type" : "string"
        },
        "shortLocationName" : {
          "type" : "string"
        },
        "timezoneId" : {
          "type" : "integer",
          "format" : "int32"
        },
        "createdDatetime" : {
          "type" : "integer",
          "format" : "int64"
        },
        "hipTimezone" : {
          "$ref" : "#/definitions/hipTimezone"
        },
        "pmLocationId" : {
          "type" : "string"
        },
        "pmLocationName" : {
          "type" : "string"
        }
      },
      "x-WM-FULLY_QUALIFIED_NAME" : "editClientLocationIntegrationConfig.hipClientLocation",
      "x-WM-TAGS" : [ "RestServiceVirtualController" ]
    },
    "hipIntegrationServiceList" : {
      "required" : [ "createdBy", "createdDatetime", "hipIntegration", "integrationId", "integrationServiceId", "integrationSvcDescription", "integrationSvcEndPoint", "integrationSvcName", "integrationSvcType", "lastUpdatedDatetime", "updatedBy" ],
      "properties" : {
        "updatedBy" : {
          "type" : "string"
        },
        "hipIntegration" : {
          "$ref" : "#/definitions/hipIntegration"
        },
        "createdBy" : {
          "type" : "string"
        },
        "integrationId" : {
          "type" : "integer",
          "format" : "int32"
        },
        "lastUpdatedDatetime" : {
          "type" : "integer",
          "format" : "int64"
        },
        "createdDatetime" : {
          "type" : "integer",
          "format" : "int64"
        },
        "integrationServiceId" : {
          "type" : "integer",
          "format" : "int32"
        },
        "integrationSvcEndPoint" : {
          "type" : "string"
        },
        "integrationSvcType" : {
          "type" : "string"
        },
        "integrationSvcName" : {
          "type" : "string"
        },
        "integrationSvcDescription" : {
          "type" : "string"
        }
      },
      "x-WM-FULLY_QUALIFIED_NAME" : "editClientLocationIntegrationConfig.hipIntegrationServiceList",
      "x-WM-TAGS" : [ "RestServiceVirtualController" ]
    },
    "RootRequest" : {
      "required" : [ "clientLocationId", "configDescription", "configKey", "configStatus", "configValue", "createdBy", "createdDatetime", "integrationServiceId", "lastUpdatedDatetime", "locationIntegrationConfigId", "updatedBy" ],
      "properties" : {
        "configKey" : {
          "type" : "string"
        },
        "locationIntegrationConfigId" : {
          "type" : "integer",
          "format" : "int32"
        },
        "updatedBy" : {
          "type" : "string"
        },
        "createdBy" : {
          "type" : "string"
        },
        "configDescription" : {
          "type" : "string"
        },
        "lastUpdatedDatetime" : {
          "type" : "integer",
          "format" : "int64"
        },
        "clientLocationId" : {
          "type" : "integer",
          "format" : "int32"
        },
        "createdDatetime" : {
          "type" : "integer",
          "format" : "int64"
        },
        "integrationServiceId" : {
          "type" : "integer",
          "format" : "int32"
        },
        "configStatus" : {
          "type" : "string"
        },
        "configValue" : {
          "type" : "string"
        }
      },
      "x-WM-FULLY_QUALIFIED_NAME" : "editClientLocationIntegrationConfig.RootRequest",
      "x-WM-TAGS" : [ "RestServiceVirtualController" ]
    },
    "hipTimezone" : {
      "required" : [ "createdBy", "createdDatetime", "gmtOffset", "lastUpdatedDatetime", "timezoneId", "timezoneName", "updatedBy" ],
      "properties" : {
        "updatedBy" : {
          "type" : "string"
        },
        "createdBy" : {
          "type" : "integer",
          "format" : "int32"
        },
        "gmtOffset" : {
          "type" : "string"
        },
        "timezoneId" : {
          "type" : "integer",
          "format" : "int32"
        },
        "timezoneName" : {
          "type" : "string"
        },
        "lastUpdatedDatetime" : {
          "type" : "string"
        },
        "createdDatetime" : {
          "type" : "string"
        }
      },
      "x-WM-FULLY_QUALIFIED_NAME" : "editClientLocationIntegrationConfig.hipTimezone",
      "x-WM-TAGS" : [ "RestServiceVirtualController" ]
    },
    "hipCountry" : {
      "required" : [ "countryId", "countryLongName", "countryName", "createdBy", "createdDatetime", "iso2Code", "iso3Code", "lastUpdatedDatetime", "updatedBy" ],
      "properties" : {
        "updatedBy" : {
          "type" : "string"
        },
        "createdBy" : {
          "type" : "integer",
          "format" : "int32"
        },
        "countryLongName" : {
          "type" : "string"
        },
        "iso2Code" : {
          "type" : "string"
        },
        "lastUpdatedDatetime" : {
          "type" : "string"
        },
        "createdDatetime" : {
          "type" : "integer",
          "format" : "int64"
        },
        "countryName" : {
          "type" : "string"
        },
        "iso3Code" : {
          "type" : "string"
        },
        "countryId" : {
          "type" : "integer",
          "format" : "int32"
        }
      },
      "x-WM-FULLY_QUALIFIED_NAME" : "editClientLocationIntegrationConfig.hipCountry",
      "x-WM-TAGS" : [ "RestServiceVirtualController" ]
    },
    "hipState" : {
      "required" : [ "countryId", "createdBy", "createdDatettime", "hipCountry", "lastUpdatedDatetime", "stateCode", "stateId", "stateName", "updatedBy" ],
      "properties" : {
        "updatedBy" : {
          "type" : "string"
        },
        "stateName" : {
          "type" : "string"
        },
        "createdBy" : {
          "type" : "string"
        },
        "stateId" : {
          "type" : "integer",
          "format" : "int32"
        },
        "createdDatettime" : {
          "type" : "integer",
          "format" : "int64"
        },
        "lastUpdatedDatetime" : {
          "type" : "string"
        },
        "stateCode" : {
          "type" : "string"
        },
        "hipCountry" : {
          "$ref" : "#/definitions/hipCountry"
        },
        "countryId" : {
          "type" : "integer",
          "format" : "int32"
        }
      },
      "x-WM-FULLY_QUALIFIED_NAME" : "editClientLocationIntegrationConfig.hipState",
      "x-WM-TAGS" : [ "RestServiceVirtualController" ]
    },
    "RootResponse" : {
      "required" : [ "clientLocationId", "configDescription", "configKey", "configStatus", "configValue", "createdBy", "createdDatetime", "hipClientLocation", "hipIntegrationServiceList", "integrationServiceId", "lastUpdatedDatetime", "locationIntegrationConfigId", "updatedBy" ],
      "properties" : {
        "updatedBy" : {
          "type" : "string"
        },
        "lastUpdatedDatetime" : {
          "type" : "integer",
          "format" : "int64"
        },
        "clientLocationId" : {
          "type" : "integer",
          "format" : "int32"
        },
        "integrationServiceId" : {
          "type" : "integer",
          "format" : "int32"
        },
        "configStatus" : {
          "type" : "string"
        },
        "configValue" : {
          "type" : "string"
        },
        "configKey" : {
          "type" : "string"
        },
        "locationIntegrationConfigId" : {
          "type" : "integer",
          "format" : "int32"
        },
        "createdBy" : {
          "type" : "string"
        },
        "configDescription" : {
          "type" : "string"
        },
        "hipClientLocation" : {
          "$ref" : "#/definitions/hipClientLocation"
        },
        "hipIntegrationServiceList" : {
          "$ref" : "#/definitions/hipIntegrationServiceList"
        },
        "createdDatetime" : {
          "type" : "integer",
          "format" : "int64"
        }
      },
      "x-WM-FULLY_QUALIFIED_NAME" : "editClientLocationIntegrationConfig.RootResponse",
      "x-WM-TAGS" : [ "RestServiceVirtualController" ]
    }
  }
}