{
  "endpointAddress" : "http://hipxdev-app.healthipass.com/HIP_SVCS/services/hip/clientLocationAssets",
  "method" : "POST",
  "headers" : { },
  "redirectEnabled" : true,
  "requestBody" : "{\n\t\"clientLocationAssetId\": null,\n\t\"assetId\": 4,\n\t\"clientLocationId\": 6,\n\t\"assetName\": \"KIOSK\",\n\t\"appVersion\": \"18.8.1\",\n\t\"osVersion\": \"11\",\n\t\"description\": \"Testing\",\n\t\"createdBy\": null,\n\t\"createdDatetime\": 1535001282000,\n\t\"updatedBy\": null,\n\t\"lastUpdatedDatetime\": 1535001282000,\n\t\"version\": 0\n}",
  "queryParams" : { },
  "authDetails" : null,
  "contentType" : "application/json",
  "multiParamInfoList" : null,
  "sampleHttpResponseDetails" : {
    "statusCode" : 200,
    "headers" : {
      "X-XSS-Protection" : [ "1; mode=block" ],
      "Content-Security-Policy" : [ "frame-ancestors 'self'" ],
      "X-Content-Type-Options" : [ "nosniff" ],
      "Content-Type" : [ "application/json;charset=UTF-8" ],
      "Transfer-Encoding" : [ "chunked" ],
      "Vary" : [ "Accept-Encoding" ],
      "Date" : [ "Mon, 27 Aug 2018 07:35:10 GMT" ],
      "Connection" : [ "keep-alive" ]
    },
    "responseBody" : "{\"clientLocationAssetId\":12,\"assetId\":4,\"clientLocationId\":6,\"assetName\":\"KIOSK\",\"appVersion\":\"18.8.1\",\"osVersion\":\"11\",\"description\":\"Testing\",\"createdBy\":null,\"createdDatetime\":1535001282000,\"updatedBy\":null,\"lastUpdatedDatetime\":1535001282000,\"version\":0,\"hipAsset\":{\"assetId\":4,\"assetUdid\":\"8306A02C-DB23-4C59-9E1E-9C6B9777E1CE\",\"assetSerialNumber\":\"78RTYUI\",\"inUse\":\"N\",\"createdBy\":1,\"createdDatetime\":1533821489000,\"updatedBy\":11,\"lastUpdatedDatetime\":1533821489000,\"version\":11},\"hipClientLocation\":{\"clientLocationId\":6,\"clientId\":1,\"parentLocationId\":6,\"locationName\":\"Hyderabad\",\"locationDescription\":\"Greater Hyderabad\",\"shortLocationName\":null,\"pmLocationId\":null,\"pmLocationName\":null,\"address1\":\"1111 West 22nd Street, Suite 222\",\"address2\":\"Oak Brook, IL 60523\",\"city\":\"Oak Brook, IL 60523\",\"stateId\":53,\"zip\":\"ccc\",\"phoneNumber\":\"33\",\"faxNumber\":\"cc\",\"emailId\":\"info@healthipass.com\",\"locationStatus\":\"I\",\"timezoneId\":5,\"createdBy\":null,\"createdDatetime\":1534917322000,\"updatedBy\":null,\"lastUpdatedDatetime\":null,\"version\":1,\"hipState\":{\"stateId\":53,\"stateName\":\"Telangana\",\"stateCode\":\"TS\",\"countryId\":104,\"hipCountry\":{\"countryId\":104,\"countryName\":\"India\",\"countryLongName\":\"India\",\"iso2Code\":\"IN\",\"iso3Code\":\"IND\",\"createdBy\":0,\"createdDatetime\":\"2018-08-15T00:00:00\",\"updatedBy\":null,\"lastUpdatedDatetime\":null,\"version\":1}},\"hipClientLocationByParentLocationId\":{\"clientLocationId\":6,\"clientId\":1,\"parentLocationId\":6,\"locationName\":\"Hyderabad\",\"locationDescription\":\"Greater Hyderabad\",\"shortLocationName\":null,\"pmLocationId\":null,\"pmLocationName\":null,\"address1\":\"1111 West 22nd Street, Suite 222\",\"address2\":\"Oak Brook, IL 60523\",\"city\":\"Oak Brook, IL 60523\",\"stateId\":53,\"zip\":\"ccc\",\"phoneNumber\":\"33\",\"faxNumber\":\"cc\",\"emailId\":\"info@healthipass.com\",\"locationStatus\":\"I\",\"timezoneId\":5,\"createdBy\":null,\"createdDatetime\":1534917322000,\"updatedBy\":null,\"lastUpdatedDatetime\":null,\"version\":1,\"hipState\":{\"stateId\":53,\"stateName\":\"Telangana\",\"stateCode\":\"TS\",\"countryId\":104,\"hipCountry\":{\"countryId\":104,\"countryName\":\"India\",\"countryLongName\":\"India\",\"iso2Code\":\"IN\",\"iso3Code\":\"IND\",\"createdBy\":0,\"createdDatetime\":\"2018-08-15T00:00:00\",\"updatedBy\":null,\"lastUpdatedDatetime\":null,\"version\":1}},\"hipClient\":{\"clientId\":1,\"clientCode\":\"NOI\",\"clientBusinessName\":\"Newport Orthopedic Institute\",\"clientShortName\":\"NOI\",\"clientWebSite\":\"https://www.newportortho.com/\",\"clientStatus\":\"A\",\"createdBy\":1,\"createdDatetime\":1533821483000,\"updatedBy\":1,\"lastUpdatedDatetime\":1533821489000,\"version\":1},\"hipTimezone\":{\"timezoneId\":5,\"locationName\":\"Alaska\",\"timezoneName\":\"Alaska\"}},\"hipClient\":{\"clientId\":1,\"clientCode\":\"NOI\",\"clientBusinessName\":\"Newport Orthopedic Institute\",\"clientShortName\":\"NOI\",\"clientWebSite\":\"https://www.newportortho.com/\",\"clientStatus\":\"A\",\"createdBy\":1,\"createdDatetime\":1533821483000,\"updatedBy\":1,\"lastUpdatedDatetime\":1533821489000,\"version\":1},\"hipTimezone\":{\"timezoneId\":5,\"locationName\":\"Alaska\",\"timezoneName\":\"Alaska\"}}}",
    "convertedResponse" : null
  },
  "proxy" : null
}