{
  "swagger" : "2.0",
  "info" : {
    "version" : "2.0",
    "x-WM-USE_PROXY_FOR_WEB" : true,
    "x-WM-USE_PROXY_FOR_MOBILE" : true,
    "x-WM-API_ID" : "1371033d-0008-485d-b137-810928907824",
    "x-WM-SERVICE_ID" : "healthipass",
    "x-WM-SERVICE_TYPE" : "RestService"
  },
  "host" : "hipxdev-app.healthipass.com",
  "basePath" : "/HIP_SVCS",
  "tags" : [ {
    "name" : "RestServiceVirtualController",
    "description" : "Rest service swagger documentation"
  } ],
  "schemes" : [ "http" ],
  "paths" : {
    "/services/hip/clientLocationAssets" : {
      "post" : {
        "tags" : [ "RestServiceVirtualController" ],
        "operationId" : "createClientLocationAssets_RestServiceVirtualController-invoke",
        "consumes" : [ "application/json" ],
        "produces" : [ "application/json" ],
        "parameters" : [ {
          "in" : "body",
          "name" : "RequestBody",
          "description" : "RequestBody",
          "required" : false,
          "schema" : {
            "$ref" : "#/definitions/RootRequest"
          },
          "x-WM-FULLY_QUALIFIED_TYPE" : "java.lang.Object"
        } ],
        "responses" : {
          "200" : {
            "description" : "Success",
            "schema" : {
              "$ref" : "#/definitions/RootResponse"
            }
          }
        },
        "x-WM-METHOD_NAME" : "invoke",
        "x-WM-ACCESS_SPECIFIER" : "APP_ONLY"
      },
      "x-WM-BASE_PATH" : "/services/hip/clientLocationAssets",
      "x-WM-TAG" : "RestServiceVirtualController",
      "x-WM-RELATIVE_PATH" : "",
      "x-WM-COMPLETE_PATH" : "${rest.createClientLocationAssets.scheme}://${rest.createClientLocationAssets.host}${rest.createClientLocationAssets.basepath}/services/hip/clientLocationAssets"
    }
  },
  "definitions" : {
    "hipAsset" : {
      "required" : [ "assetId", "assetSerialNumber", "assetUdid", "createdBy", "createdDatetime", "inUse", "lastUpdatedDatetime", "updatedBy", "version" ],
      "properties" : {
        "assetSerialNumber" : {
          "type" : "string"
        },
        "updatedBy" : {
          "type" : "integer",
          "format" : "int32"
        },
        "createdBy" : {
          "type" : "integer",
          "format" : "int32"
        },
        "assetId" : {
          "type" : "integer",
          "format" : "int32"
        },
        "inUse" : {
          "type" : "string"
        },
        "lastUpdatedDatetime" : {
          "type" : "integer",
          "format" : "int64"
        },
        "createdDatetime" : {
          "type" : "integer",
          "format" : "int64"
        },
        "assetUdid" : {
          "type" : "string"
        },
        "version" : {
          "type" : "integer",
          "format" : "int32"
        }
      },
      "x-WM-FULLY_QUALIFIED_NAME" : "createClientLocationAssets.hipAsset",
      "x-WM-TAGS" : [ "RestServiceVirtualController" ]
    },
    "hipClient" : {
      "required" : [ "clientBusinessName", "clientCode", "clientId", "clientShortName", "clientStatus", "clientWebSite", "createdBy", "createdDatetime", "lastUpdatedDatetime", "updatedBy", "version" ],
      "properties" : {
        "clientId" : {
          "type" : "integer",
          "format" : "int32"
        },
        "updatedBy" : {
          "type" : "integer",
          "format" : "int32"
        },
        "clientBusinessName" : {
          "type" : "string"
        },
        "clientShortName" : {
          "type" : "string"
        },
        "createdBy" : {
          "type" : "integer",
          "format" : "int32"
        },
        "clientCode" : {
          "type" : "string"
        },
        "clientWebSite" : {
          "type" : "string"
        },
        "clientStatus" : {
          "type" : "string"
        },
        "lastUpdatedDatetime" : {
          "type" : "integer",
          "format" : "int64"
        },
        "createdDatetime" : {
          "type" : "integer",
          "format" : "int64"
        },
        "version" : {
          "type" : "integer",
          "format" : "int32"
        }
      },
      "x-WM-FULLY_QUALIFIED_NAME" : "createClientLocationAssets.hipClient",
      "x-WM-TAGS" : [ "RestServiceVirtualController" ]
    },
    "hipClientLocation" : {
      "required" : [ "address1", "address2", "city", "clientId", "clientLocationId", "createdBy", "createdDatetime", "emailId", "faxNumber", "hipClient", "hipClientLocationByParentLocationId", "hipState", "hipTimezone", "lastUpdatedDatetime", "locationDescription", "locationName", "locationStatus", "parentLocationId", "phoneNumber", "pmLocationId", "pmLocationName", "shortLocationName", "stateId", "timezoneId", "updatedBy", "version", "zip" ],
      "properties" : {
        "city" : {
          "type" : "string"
        },
        "locationDescription" : {
          "type" : "string"
        },
        "clientLocationId" : {
          "type" : "integer",
          "format" : "int32"
        },
        "emailId" : {
          "type" : "string"
        },
        "hipState" : {
          "$ref" : "#/definitions/hipState"
        },
        "locationStatus" : {
          "type" : "string"
        },
        "shortLocationName" : {
          "type" : "string"
        },
        "pmLocationId" : {
          "type" : "string"
        },
        "pmLocationName" : {
          "type" : "string"
        },
        "zip" : {
          "type" : "string"
        },
        "hipClient" : {
          "$ref" : "#/definitions/hipClient"
        },
        "parentLocationId" : {
          "type" : "integer",
          "format" : "int32"
        },
        "clientId" : {
          "type" : "integer",
          "format" : "int32"
        },
        "locationName" : {
          "type" : "string"
        },
        "updatedBy" : {
          "type" : "string"
        },
        "address2" : {
          "type" : "string"
        },
        "address1" : {
          "type" : "string"
        },
        "hipClientLocationByParentLocationId" : {
          "$ref" : "#/definitions/hipClientLocationByParentLocationId"
        },
        "stateId" : {
          "type" : "integer",
          "format" : "int32"
        },
        "lastUpdatedDatetime" : {
          "type" : "string"
        },
        "version" : {
          "type" : "integer",
          "format" : "int32"
        },
        "phoneNumber" : {
          "type" : "string"
        },
        "createdBy" : {
          "type" : "string"
        },
        "faxNumber" : {
          "type" : "string"
        },
        "timezoneId" : {
          "type" : "integer",
          "format" : "int32"
        },
        "createdDatetime" : {
          "type" : "integer",
          "format" : "int64"
        },
        "hipTimezone" : {
          "$ref" : "#/definitions/hipTimezone"
        }
      },
      "x-WM-FULLY_QUALIFIED_NAME" : "createClientLocationAssets.hipClientLocation",
      "x-WM-TAGS" : [ "RestServiceVirtualController" ]
    },
    "hipClientLocationByParentLocationId" : {
      "required" : [ "address1", "address2", "city", "clientId", "clientLocationId", "createdBy", "createdDatetime", "emailId", "faxNumber", "hipClient", "hipState", "hipTimezone", "lastUpdatedDatetime", "locationDescription", "locationName", "locationStatus", "parentLocationId", "phoneNumber", "pmLocationId", "pmLocationName", "shortLocationName", "stateId", "timezoneId", "updatedBy", "version", "zip" ],
      "properties" : {
        "city" : {
          "type" : "string"
        },
        "locationDescription" : {
          "type" : "string"
        },
        "clientLocationId" : {
          "type" : "integer",
          "format" : "int32"
        },
        "emailId" : {
          "type" : "string"
        },
        "hipState" : {
          "$ref" : "#/definitions/hipState"
        },
        "locationStatus" : {
          "type" : "string"
        },
        "shortLocationName" : {
          "type" : "string"
        },
        "pmLocationId" : {
          "type" : "string"
        },
        "pmLocationName" : {
          "type" : "string"
        },
        "zip" : {
          "type" : "string"
        },
        "hipClient" : {
          "$ref" : "#/definitions/hipClient"
        },
        "parentLocationId" : {
          "type" : "integer",
          "format" : "int32"
        },
        "clientId" : {
          "type" : "integer",
          "format" : "int32"
        },
        "locationName" : {
          "type" : "string"
        },
        "updatedBy" : {
          "type" : "string"
        },
        "address2" : {
          "type" : "string"
        },
        "address1" : {
          "type" : "string"
        },
        "stateId" : {
          "type" : "integer",
          "format" : "int32"
        },
        "lastUpdatedDatetime" : {
          "type" : "string"
        },
        "version" : {
          "type" : "integer",
          "format" : "int32"
        },
        "phoneNumber" : {
          "type" : "string"
        },
        "createdBy" : {
          "type" : "string"
        },
        "faxNumber" : {
          "type" : "string"
        },
        "timezoneId" : {
          "type" : "integer",
          "format" : "int32"
        },
        "createdDatetime" : {
          "type" : "integer",
          "format" : "int64"
        },
        "hipTimezone" : {
          "$ref" : "#/definitions/hipTimezone"
        }
      },
      "x-WM-FULLY_QUALIFIED_NAME" : "createClientLocationAssets.hipClientLocationByParentLocationId",
      "x-WM-TAGS" : [ "RestServiceVirtualController" ]
    },
    "RootRequest" : {
      "required" : [ "appVersion", "assetId", "assetName", "clientLocationAssetId", "clientLocationId", "createdBy", "createdDatetime", "description", "lastUpdatedDatetime", "osVersion", "updatedBy", "version" ],
      "properties" : {
        "appVersion" : {
          "type" : "string"
        },
        "updatedBy" : {
          "type" : "string"
        },
        "osVersion" : {
          "type" : "string"
        },
        "createdBy" : {
          "type" : "string"
        },
        "assetId" : {
          "type" : "integer",
          "format" : "int32"
        },
        "assetName" : {
          "type" : "string"
        },
        "description" : {
          "type" : "string"
        },
        "lastUpdatedDatetime" : {
          "type" : "integer",
          "format" : "int64"
        },
        "clientLocationAssetId" : {
          "type" : "string"
        },
        "clientLocationId" : {
          "type" : "integer",
          "format" : "int32"
        },
        "createdDatetime" : {
          "type" : "integer",
          "format" : "int64"
        },
        "version" : {
          "type" : "integer",
          "format" : "int32"
        }
      },
      "x-WM-FULLY_QUALIFIED_NAME" : "createClientLocationAssets.RootRequest",
      "x-WM-TAGS" : [ "RestServiceVirtualController" ]
    },
    "hipTimezone" : {
      "required" : [ "locationName", "timezoneId", "timezoneName" ],
      "properties" : {
        "locationName" : {
          "type" : "string"
        },
        "timezoneId" : {
          "type" : "integer",
          "format" : "int32"
        },
        "timezoneName" : {
          "type" : "string"
        }
      },
      "x-WM-FULLY_QUALIFIED_NAME" : "createClientLocationAssets.hipTimezone",
      "x-WM-TAGS" : [ "RestServiceVirtualController" ]
    },
    "hipCountry" : {
      "required" : [ "countryId", "countryLongName", "countryName", "createdBy", "createdDatetime", "iso2Code", "iso3Code", "lastUpdatedDatetime", "updatedBy", "version" ],
      "properties" : {
        "updatedBy" : {
          "type" : "string"
        },
        "createdBy" : {
          "type" : "integer",
          "format" : "int32"
        },
        "countryLongName" : {
          "type" : "string"
        },
        "iso2Code" : {
          "type" : "string"
        },
        "lastUpdatedDatetime" : {
          "type" : "string"
        },
        "createdDatetime" : {
          "type" : "string"
        },
        "countryName" : {
          "type" : "string"
        },
        "iso3Code" : {
          "type" : "string"
        },
        "version" : {
          "type" : "integer",
          "format" : "int32"
        },
        "countryId" : {
          "type" : "integer",
          "format" : "int32"
        }
      },
      "x-WM-FULLY_QUALIFIED_NAME" : "createClientLocationAssets.hipCountry",
      "x-WM-TAGS" : [ "RestServiceVirtualController" ]
    },
    "hipState" : {
      "required" : [ "countryId", "hipCountry", "stateCode", "stateId", "stateName" ],
      "properties" : {
        "stateName" : {
          "type" : "string"
        },
        "stateId" : {
          "type" : "integer",
          "format" : "int32"
        },
        "stateCode" : {
          "type" : "string"
        },
        "hipCountry" : {
          "$ref" : "#/definitions/hipCountry"
        },
        "countryId" : {
          "type" : "integer",
          "format" : "int32"
        }
      },
      "x-WM-FULLY_QUALIFIED_NAME" : "createClientLocationAssets.hipState",
      "x-WM-TAGS" : [ "RestServiceVirtualController" ]
    },
    "RootResponse" : {
      "required" : [ "appVersion", "assetId", "assetName", "clientLocationAssetId", "clientLocationId", "createdBy", "createdDatetime", "description", "hipAsset", "hipClientLocation", "lastUpdatedDatetime", "osVersion", "updatedBy", "version" ],
      "properties" : {
        "appVersion" : {
          "type" : "string"
        },
        "updatedBy" : {
          "type" : "string"
        },
        "description" : {
          "type" : "string"
        },
        "lastUpdatedDatetime" : {
          "type" : "integer",
          "format" : "int64"
        },
        "clientLocationAssetId" : {
          "type" : "integer",
          "format" : "int32"
        },
        "clientLocationId" : {
          "type" : "integer",
          "format" : "int32"
        },
        "version" : {
          "type" : "integer",
          "format" : "int32"
        },
        "hipAsset" : {
          "$ref" : "#/definitions/hipAsset"
        },
        "osVersion" : {
          "type" : "string"
        },
        "createdBy" : {
          "type" : "string"
        },
        "assetId" : {
          "type" : "integer",
          "format" : "int32"
        },
        "hipClientLocation" : {
          "$ref" : "#/definitions/hipClientLocation"
        },
        "assetName" : {
          "type" : "string"
        },
        "createdDatetime" : {
          "type" : "integer",
          "format" : "int64"
        }
      },
      "x-WM-FULLY_QUALIFIED_NAME" : "createClientLocationAssets.RootResponse",
      "x-WM-TAGS" : [ "RestServiceVirtualController" ]
    }
  }
}