{
  "basePath" : "${rest.createIntegration.basepath}",
  "paths" : {
    "/integrations" : {
      "post" : {
        "x-WM-METHOD_NAME" : "invoke",
        "x-WM-ACCESS_SPECIFIER" : "APP_ONLY",
        "operationId" : "createIntegration_RestServiceVirtualController-invoke",
        "responses" : {
          "200" : {
            "schema" : {
              "$ref" : "#/definitions/RootResponse"
            },
            "description" : "Success"
          }
        },
        "parameters" : [ {
          "schema" : {
            "$ref" : "#/definitions/RootRequest"
          },
          "in" : "body",
          "name" : "RequestBody",
          "description" : "RequestBody",
          "x-WM-FULLY_QUALIFIED_TYPE" : "java.lang.Object",
          "required" : false
        } ],
        "tags" : [ "RestServiceVirtualController" ],
        "consumes" : [ "application/json" ]
      },
      "x-WM-BASE_PATH" : "/integrations",
      "x-WM-TAG" : "RestServiceVirtualController",
      "x-WM-RELATIVE_PATH" : "",
      "x-WM-COMPLETE_PATH" : "${rest.createIntegration.scheme}://${rest.createIntegration.host}${rest.createIntegration.basepath}/integrations"
    }
  },
  "host" : "${rest.createIntegration.host}",
  "schemes" : [ "${rest.createIntegration.scheme}" ],
  "definitions" : {
    "RootRequest" : {
      "x-WM-FULLY_QUALIFIED_NAME" : "createIntegration.RootRequest",
      "x-WM-TAGS" : [ "RestServiceVirtualController" ],
      "required" : [ "authType", "category", "description", "endPoint", "name", "requestType", "responseType", "shortCode" ],
      "properties" : {
        "endPoint" : {
          "type" : "string"
        },
        "responseType" : {
          "type" : "string"
        },
        "requestType" : {
          "type" : "string"
        },
        "name" : {
          "type" : "string"
        },
        "description" : {
          "type" : "string"
        },
        "category" : {
          "type" : "string"
        },
        "authType" : {
          "type" : "string"
        },
        "shortCode" : {
          "type" : "string"
        }
      }
    },
    "RootResponse" : {
      "x-WM-FULLY_QUALIFIED_NAME" : "createIntegration.RootResponse",
      "x-WM-TAGS" : [ "RestServiceVirtualController" ],
      "required" : [ "authType", "category", "description", "endPoint", "id", "name", "requestType", "responseType", "shortCode" ],
      "properties" : {
        "endPoint" : {
          "type" : "string"
        },
        "responseType" : {
          "type" : "string"
        },
        "requestType" : {
          "type" : "string"
        },
        "name" : {
          "type" : "string"
        },
        "description" : {
          "type" : "string"
        },
        "id" : {
          "format" : "int32",
          "type" : "integer"
        },
        "category" : {
          "type" : "string"
        },
        "authType" : {
          "type" : "string"
        },
        "shortCode" : {
          "type" : "string"
        }
      }
    }
  },
  "swagger" : "2.0",
  "info" : {
    "x-WM-USE_PROXY_FOR_WEB" : true,
    "x-WM-USE_PROXY_FOR_MOBILE" : true,
    "x-WM-API_ID" : "63df9208-d5c2-48c4-a222-f094c564b96a",
    "x-WM-SERVICE_ID" : "healthipass",
    "version" : "2.0",
    "x-WM-SERVICE_TYPE" : "RestService"
  },
  "tags" : [ {
    "name" : "RestServiceVirtualController",
    "description" : "Rest service swagger documentation"
  } ]
}