{
  "endpointAddress" : "http://dev-hipx-services.healthipass.internal:8080/clients",
  "method" : "POST",
  "headers" : { },
  "redirectEnabled" : true,
  "requestBody" : "{\n\"code\": \"code\",\n\"businessName\": \"businessName\",\n\"shortName\": \"shortName\",\n\"website\": \"http://www.website.com/\",\n\"status\": \"active\"\n}",
  "queryParams" : { },
  "authDetails" : null,
  "contentType" : "application/json",
  "multiParamInfoList" : null,
  "sampleHttpResponseDetails" : {
    "statusCode" : 0,
    "headers" : { },
    "responseBody" : "{\"id\":27,\"code\":\"code\",\"businessName\":\"businessName\",\"shortName\":\"shortName\",\"website\":\"http://www.website.com/\",\"status\":\"active\"}",
    "convertedResponse" : null
  },
  "proxy" : null
}