{
  "endpointAddress" : "http://hipxdev-app.healthipass.com/HIP_SVCS/services/hip/clientLocationIntegrations",
  "method" : "POST",
  "headers" : { },
  "redirectEnabled" : true,
  "requestBody" : "{\n\t\t\t\"clientLocationIntegrationId\": 1,\n\t\t\t\"integrationId\": 1,\n\t\t\t\"clientLocationId\": 6,\n\t\t\t\"locationIntegrationDescription\": \"test\",\n\t\t\t\"locationIntegrationStatus\": \"Active\",\n\t\t\t\"createdBy\": null,\n\t\t\t\"createdDatetime\": 1533821489000,\n\t\t\t\"updatedBy\": null,\n\t\t\t\"lastUpdatedDatetime\": 1533821489000,\n\t\t\t\"version\": 1\n\t}",
  "queryParams" : { },
  "authDetails" : null,
  "contentType" : "application/json",
  "multiParamInfoList" : null,
  "sampleHttpResponseDetails" : {
    "statusCode" : 200,
    "headers" : {
      "X-XSS-Protection" : [ "1; mode=block" ],
      "Content-Security-Policy" : [ "frame-ancestors 'self'" ],
      "X-Content-Type-Options" : [ "nosniff" ],
      "Content-Type" : [ "application/json;charset=UTF-8" ],
      "Transfer-Encoding" : [ "chunked" ],
      "Vary" : [ "Accept-Encoding" ],
      "Date" : [ "Wed, 12 Sep 2018 10:24:28 GMT" ],
      "Connection" : [ "keep-alive" ]
    },
    "responseBody" : "{\"clientLocationIntegrationId\":2,\"integrationId\":1,\"clientLocationId\":6,\"locationIntegrationDescription\":\"test\",\"locationIntegrationStatus\":\"Active\",\"createdBy\":null,\"createdDatetime\":1533821489000,\"updatedBy\":null,\"lastUpdatedDatetime\":1533821489000,\"version\":1,\"hipClientLocation\":{\"clientLocationId\":6,\"clientId\":1,\"parentLocationId\":null,\"locationName\":\"Hyderabad\",\"locationDescription\":\"Greater Hyderabad\",\"shortLocationName\":null,\"pmLocationId\":null,\"pmLocationName\":null,\"address1\":\"1111 West 22nd Street, Suite 222\",\"address2\":\"Oak Brook, IL 60523\",\"city\":\"Oak Brook, IL 60523\",\"stateId\":3,\"zip\":\"890798\",\"locationStatus\":\"Active\",\"timezoneId\":5,\"createdBy\":null,\"createdDatetime\":1534917322000,\"updatedBy\":null,\"lastUpdatedDatetime\":1535438131000,\"hipState\":{\"stateId\":3,\"stateName\":\"Arizona\",\"stateCode\":\"AZ\",\"countryId\":237,\"createdBy\":null,\"createdDatettime\":1535436649000,\"updatedBy\":null,\"lastUpdatedDatetime\":null,\"hipCountry\":{\"countryId\":237,\"countryName\":\"United States of America\",\"countryLongName\":\"United States of America (the)\",\"iso2Code\":\"US\",\"iso3Code\":\"USA\",\"createdBy\":0,\"createdDatetime\":1534291200000,\"updatedBy\":null,\"lastUpdatedDatetime\":null}},\"hipClientLocationByParentLocationId\":null,\"hipClient\":{\"clientId\":1,\"clientCode\":\"NOI\",\"clientBusinessName\":\"Newport Orthopedic Institute\",\"clientShortName\":\"NOI\",\"clientWebSite\":\"http://www.newportortho.com/\",\"clientStatus\":\"Active\",\"createdBy\":1,\"createdDatetime\":1533821483000,\"updatedBy\":1,\"lastUpdatedDatetime\":1535438091000},\"hipTimezone\":{\"timezoneId\":5,\"timezoneName\":\"Alaska\",\"gmtOffset\":\"\",\"createdBy\":0,\"createdDatetime\":null,\"updatedBy\":null,\"lastUpdatedDatetime\":null}},\"hipIntegration\":{\"integrationId\":1,\"integrationName\":\"Google map\",\"integrationCategory\":\"Eligitbility\",\"integrationShortCode\":\"GSON\",\"integrationAuthType\":\"basic\",\"integrationEndPoint\":\"http://www.google.com\",\"integrationDescription\":\"GSON INT\",\"requestType\":\"JSON\",\"responseType\":\"JSON\",\"createdBy\":null,\"createdDatetime\":1533821483000,\"updatedBy\":null,\"lastUpdatedDatetime\":1533821483000}}",
    "convertedResponse" : null
  },
  "proxy" : null
}