{
  "swagger" : "2.0",
  "info" : {
    "version" : "2.0",
    "x-WM-USE_PROXY_FOR_WEB" : true,
    "x-WM-USE_PROXY_FOR_MOBILE" : true,
    "x-WM-API_ID" : "cab1bf66-c535-4e7e-94f8-39ad9338c872",
    "x-WM-SERVICE_ID" : "healthipass",
    "x-WM-SERVICE_TYPE" : "RestService"
  },
  "host" : "dev-hipx-services.healthipass.internal:8080",
  "basePath" : "",
  "tags" : [ {
    "name" : "RestServiceVirtualController",
    "description" : "Rest service swagger documentation"
  } ],
  "schemes" : [ "http" ],
  "paths" : {
    "/serviceList/invoke/services" : {
      "get" : {
        "tags" : [ "RestServiceVirtualController" ],
        "operationId" : "serviceList_RestServiceVirtualController-invoke",
        "consumes" : [ "application/json" ],
        "produces" : [ "application/json" ],
        "responses" : {
          "200" : {
            "description" : "Success",
            "schema" : {
              "type" : "array",
              "items" : {
                "$ref" : "#/definitions/RootResponseROOTEntryItem"
              },
              "x-WM-IS_LIST" : true
            }
          }
        },
        "x-WM-METHOD_NAME" : "invoke",
        "x-WM-ACCESS_SPECIFIER" : "APP_ONLY"
      },
      "x-WM-BASE_PATH" : "/serviceList/invoke/services",
      "x-WM-TAG" : "RestServiceVirtualController",
      "x-WM-RELATIVE_PATH" : "",
      "x-WM-COMPLETE_PATH" : "${rest.serviceList.scheme}://${rest.serviceList.host}${rest.serviceList.basepath}/services"
    }
  },
  "definitions" : {
    "RootResponseROOTEntryItem" : {
      "required" : [ "code", "id", "name" ],
      "properties" : {
        "code" : {
          "type" : "string"
        },
        "name" : {
          "type" : "string"
        },
        "id" : {
          "type" : "integer",
          "format" : "int32"
        }
      },
      "x-WM-FULLY_QUALIFIED_NAME" : "serviceList.RootResponseROOTEntryItem",
      "x-WM-TAGS" : [ "RestServiceVirtualController" ]
    },
    "RootResponse" : {
      "required" : [ "RootResponseROOT" ],
      "properties" : {
        "RootResponseROOT" : {
          "type" : "array",
          "items" : {
            "$ref" : "#/definitions/RootResponseROOTEntryItem"
          },
          "x-WM-IS_LIST" : true
        }
      },
      "x-WM-FULLY_QUALIFIED_NAME" : "serviceList.RootResponse",
      "x-WM-TAGS" : [ "RestServiceVirtualController" ]
    }
  }
}