{
  "basePath" : "${rest.configList.basepath}",
  "paths" : {
    "/configs" : {
      "x-WM-BASE_PATH" : "/configs",
      "x-WM-TAG" : "RestServiceVirtualController",
      "x-WM-RELATIVE_PATH" : "",
      "get" : {
        "x-WM-METHOD_NAME" : "invoke",
        "x-WM-ACCESS_SPECIFIER" : "APP_ONLY",
        "operationId" : "configList_RestServiceVirtualController-invoke",
        "responses" : {
          "200" : {
            "schema" : {
              "x-WM-IS_LIST" : true,
              "type" : "array",
              "items" : {
                "$ref" : "#/definitions/RootResponseROOTEntryItem"
              }
            },
            "description" : "Success"
          }
        },
        "parameters" : [ {
          "in" : "query",
          "name" : "page",
          "format" : "string",
          "type" : "string",
          "required" : false
        }, {
          "in" : "query",
          "name" : "sort",
          "format" : "string",
          "type" : "string",
          "required" : false
        }, {
          "in" : "query",
          "name" : "size",
          "format" : "string",
          "type" : "string",
          "required" : false
        } ],
        "tags" : [ "RestServiceVirtualController" ],
        "consumes" : [ "application/json" ]
      },
      "x-WM-COMPLETE_PATH" : "${rest.configList.scheme}://${rest.configList.host}${rest.configList.basepath}/configs"
    }
  },
  "host" : "${rest.configList.host}",
  "schemes" : [ "${rest.configList.scheme}" ],
  "definitions" : {
    "RootResponseROOTEntryItem" : {
      "x-WM-FULLY_QUALIFIED_NAME" : "configList.RootResponseROOTEntryItem",
      "x-WM-TAGS" : [ "RestServiceVirtualController" ],
      "required" : [ "dataType", "description", "id", "key", "name" ],
      "properties" : {
        "dataType" : {
          "type" : "string"
        },
        "name" : {
          "type" : "string"
        },
        "description" : {
          "type" : "string"
        },
        "id" : {
          "format" : "int32",
          "type" : "integer"
        },
        "key" : {
          "type" : "string"
        }
      }
    },
    "RootResponse" : {
      "x-WM-FULLY_QUALIFIED_NAME" : "configList.RootResponse",
      "x-WM-TAGS" : [ "RestServiceVirtualController" ],
      "required" : [ "RootResponseROOT" ],
      "properties" : {
        "RootResponseROOT" : {
          "x-WM-IS_LIST" : true,
          "type" : "array",
          "items" : {
            "$ref" : "#/definitions/RootResponseROOTEntryItem"
          }
        }
      }
    }
  },
  "swagger" : "2.0",
  "info" : {
    "x-WM-USE_PROXY_FOR_WEB" : true,
    "x-WM-USE_PROXY_FOR_MOBILE" : true,
    "x-WM-API_ID" : "16813bd5-882e-4616-accd-f679fbfab294",
    "x-WM-SERVICE_ID" : "healthipass",
    "version" : "2.0",
    "x-WM-SERVICE_TYPE" : "RestService"
  },
  "tags" : [ {
    "name" : "RestServiceVirtualController",
    "description" : "Rest service swagger documentation"
  } ]
}