{
  "swagger" : "2.0",
  "info" : {
    "version" : "2.0",
    "x-WM-USE_PROXY_FOR_WEB" : true,
    "x-WM-USE_PROXY_FOR_MOBILE" : true,
    "x-WM-API_ID" : "0880d03f-0f65-4a1f-901f-f7cdf47d8d8c",
    "x-WM-SERVICE_ID" : "healthipass",
    "x-WM-SERVICE_TYPE" : "RestService"
  },
  "host" : "dev-hipx-services.healthipass.internal:8080",
  "basePath" : "",
  "tags" : [ {
    "name" : "RestServiceVirtualController",
    "description" : "Rest service swagger documentation"
  } ],
  "schemes" : [ "http" ],
  "paths" : {
    "/editCodeset/invoke/codesets/{id}" : {
      "patch" : {
        "tags" : [ "RestServiceVirtualController" ],
        "operationId" : "editCodeset_RestServiceVirtualController-invoke",
        "consumes" : [ "application/json" ],
        "produces" : [ "application/json" ],
        "parameters" : [ {
          "in" : "body",
          "name" : "RequestBody",
          "description" : "RequestBody",
          "required" : false,
          "schema" : {
            "$ref" : "#/definitions/RootRequest"
          },
          "x-WM-FULLY_QUALIFIED_TYPE" : "java.lang.Object"
        }, {
          "name" : "id",
          "in" : "path",
          "required" : true,
          "type" : "string"
        } ],
        "responses" : {
          "200" : {
            "description" : "Success",
            "schema" : {
              "$ref" : "#/definitions/RootResponse"
            }
          }
        },
        "x-WM-METHOD_NAME" : "invoke",
        "x-WM-ACCESS_SPECIFIER" : "APP_ONLY"
      },
      "x-WM-BASE_PATH" : "/editCodeset/invoke/codesets/{id}",
      "x-WM-TAG" : "RestServiceVirtualController",
      "x-WM-RELATIVE_PATH" : "",
      "x-WM-COMPLETE_PATH" : "${rest.editCodeset.scheme}://${rest.editCodeset.host}${rest.editCodeset.basepath}/codesets/{id}"
    }
  },
  "definitions" : {
    "RootRequest" : {
      "required" : [ "description", "friendlyName", "id", "type", "value" ],
      "properties" : {
        "description" : {
          "type" : "string"
        },
        "id" : {
          "type" : "integer",
          "format" : "int32"
        },
        "type" : {
          "type" : "string"
        },
        "value" : {
          "type" : "string"
        },
        "friendlyName" : {
          "type" : "string"
        }
      },
      "x-WM-FULLY_QUALIFIED_NAME" : "editCodeset.RootRequest",
      "x-WM-TAGS" : [ "RestServiceVirtualController" ]
    },
    "RootResponse" : {
      "required" : [ "description", "friendlyName", "id", "type", "value" ],
      "properties" : {
        "description" : {
          "type" : "string"
        },
        "id" : {
          "type" : "integer",
          "format" : "int32"
        },
        "type" : {
          "type" : "string"
        },
        "value" : {
          "type" : "string"
        },
        "friendlyName" : {
          "type" : "string"
        }
      },
      "x-WM-FULLY_QUALIFIED_NAME" : "editCodeset.RootResponse",
      "x-WM-TAGS" : [ "RestServiceVirtualController" ]
    }
  }
}