{
  "endpointAddress" : "http://dev-hipx-services.healthipass.internal:8080/codesets/{id}",
  "method" : "PATCH",
  "headers" : { },
  "redirectEnabled" : true,
  "requestBody" : "{\n\"id\": 2,\n\"type\": \"cpt\",\n\"value\": \"99204\",\n\"description\": \"Level 4 - New Patient\",\n\"friendlyName\": \"Physician Consultation - New Patient (L4)\"\n}",
  "queryParams" : { },
  "authDetails" : null,
  "contentType" : "application/json",
  "multiParamInfoList" : null,
  "sampleHttpResponseDetails" : {
    "statusCode" : 200,
    "headers" : {
      "Date" : [ "Thu, 11 Oct 2018 08:37:00 GMT" ],
      "Content-Type" : [ "application/json" ],
      "Transfer-Encoding" : [ "chunked" ],
      "Connection" : [ "keep-alive" ]
    },
    "responseBody" : "{\"id\":2,\"type\":\"cpt\",\"value\":\"99204\",\"description\":\"Level 4 - New Patient\",\"friendlyName\":\"Physician Consultation - New Patient (L4)\"}",
    "convertedResponse" : null
  },
  "proxy" : null
}