{
  "endpointAddress" : "http://hipxdev-app.healthipass.com/HIP_SVCS/services/hip/clientLocationConfigs",
  "method" : "POST",
  "headers" : { },
  "redirectEnabled" : true,
  "requestBody" : "{\n\t\t\t\"clientLocationConfigId\": 3,\n\t\t\t\"configId\": 1,\n\t\t\t\"clientLocationId\": 6,\n\t\t\t\"configStatus\": \"Y\",\n\t\t\t\"configValue\": \"desc\",\n\t\t\t\"locConfigDescription\": \"ui desc\",\n\t\t\t\"createdBy\": null,\n\t\t\t\"createdDatetime\": null,\n\t\t\t\"updatedBy\": null,\n\t\t\t\"lastUpdatedDatetime\": null,\n\t\t\t\"version\": 1\n\t\t\t}",
  "queryParams" : { },
  "authDetails" : null,
  "contentType" : "application/json",
  "multiParamInfoList" : null,
  "sampleHttpResponseDetails" : {
    "statusCode" : 200,
    "headers" : {
      "X-XSS-Protection" : [ "1; mode=block" ],
      "Content-Security-Policy" : [ "frame-ancestors 'self'" ],
      "X-Content-Type-Options" : [ "nosniff" ],
      "Content-Type" : [ "application/json;charset=UTF-8" ],
      "Transfer-Encoding" : [ "chunked" ],
      "Vary" : [ "Accept-Encoding" ],
      "Date" : [ "Wed, 22 Aug 2018 07:11:54 GMT" ],
      "Connection" : [ "keep-alive" ]
    },
    "responseBody" : "{\"clientLocationConfigId\":4,\"configId\":1,\"clientLocationId\":6,\"configStatus\":\"Y\",\"configValue\":\"desc\",\"locConfigDescription\":\"ui desc\",\"createdBy\":null,\"createdDatetime\":null,\"updatedBy\":null,\"lastUpdatedDatetime\":null,\"version\":1,\"hipClientLocation\":{\"clientLocationId\":6,\"clientId\":1,\"parentLocationId\":null,\"locationName\":\"Hyderabad\",\"locationDescription\":\"Greater Hyderabad\",\"locationLabel\":\"Hyderabad\",\"shortLocationName\":null,\"pmLocationId\":null,\"pmLocationName\":null,\"address1\":\"1111 West 22nd Street, Suite 222\",\"address2\":\"Oak Brook, IL 60523\",\"city\":\"Oak Brook, IL 60523\",\"stateId\":53,\"zip\":null,\"phoneNumber\":null,\"fax\":null,\"emailId\":\"info@healthipass.com\",\"locStatus\":\"H\",\"timezoneId\":10,\"createdBy\":null,\"createdDatetime\":null,\"updatedBy\":null,\"lastUpdatedDatetime\":null,\"version\":1,\"hipState\":{\"stateId\":53,\"stateName\":\"Telangana\",\"stateCode\":\"TS\",\"countryId\":104,\"hipCountry\":{\"countryId\":104,\"countryName\":\"India\",\"countryLongName\":\"India\",\"iso2Code\":\"IN\",\"iso3Code\":\"IND\",\"createdBy\":0,\"createdDatetime\":\"2018-08-15T00:00:00\",\"updatedBy\":null,\"lastUpdatedDatetime\":null,\"version\":1}},\"hipClientLocationByParentLocationId\":null,\"hipClient\":{\"clientId\":1,\"clientCode\":\"NOI\",\"clientBusinessName\":\"Newport Orthopedic Institute\",\"clientShortName\":\"NOI\",\"clientWebSite\":\"https://www.newportortho.com/\",\"clientStatus\":\"A\",\"createdBy\":1,\"createdDatetime\":1533821483000,\"updatedBy\":1,\"lastUpdatedDatetime\":1533821489000,\"version\":1},\"hipTimezone\":{\"timezoneId\":10,\"locationName\":\"Hyderabad\",\"timezoneName\":\"Asia/Calcutta\"}},\"hipConfig\":{\"configId\":1,\"configKey\":\"1\",\"configName\":\"1\",\"dataType\":\"1\",\"configDescription\":\"1\",\"createdBy\":1,\"createdDatetime\":1533821489000,\"updatedBy\":1,\"lastUpdatedDatetime\":1533821489000,\"version\":1}}",
    "convertedResponse" : null
  },
  "proxy" : null
}