{
  "basePath" : "${rest.createLocation.basepath}",
  "paths" : {
    "/client/{clientId}/locations" : {
      "post" : {
        "x-WM-METHOD_NAME" : "invoke",
        "x-WM-ACCESS_SPECIFIER" : "APP_ONLY",
        "produces" : [ "application/json" ],
        "operationId" : "createLocation_RestServiceVirtualController-invoke",
        "responses" : {
          "200" : {
            "schema" : {
              "$ref" : "#/definitions/RootResponse"
            },
            "description" : "Success"
          }
        },
        "parameters" : [ {
          "schema" : {
            "$ref" : "#/definitions/RootRequest"
          },
          "in" : "body",
          "name" : "RequestBody",
          "description" : "RequestBody",
          "x-WM-FULLY_QUALIFIED_TYPE" : "java.lang.Object",
          "required" : false
        }, {
          "in" : "path",
          "name" : "clientId",
          "type" : "string",
          "required" : true
        } ],
        "tags" : [ "RestServiceVirtualController" ],
        "consumes" : [ "application/json" ]
      },
      "x-WM-BASE_PATH" : "/client/{clientId}/locations",
      "x-WM-TAG" : "RestServiceVirtualController",
      "x-WM-RELATIVE_PATH" : "",
      "x-WM-COMPLETE_PATH" : "${rest.createLocation.scheme}://${rest.createLocation.host}${rest.createLocation.basepath}/client/{clientId}/locations"
    }
  },
  "host" : "${rest.createLocation.host}",
  "schemes" : [ "${rest.createLocation.scheme}" ],
  "definitions" : {
    "RootRequest" : {
      "x-WM-FULLY_QUALIFIED_NAME" : "createLocation.RootRequest",
      "x-WM-TAGS" : [ "RestServiceVirtualController" ],
      "required" : [ "address1", "address2", "city", "client", "ehrLocationId", "ehrLocationName", "locationDescription", "locationName", "locationStatus", "shortLocationName", "state", "timeZone", "zip" ],
      "properties" : {
        "zip" : {
          "type" : "string"
        },
        "locationName" : {
          "type" : "string"
        },
        "address2" : {
          "type" : "string"
        },
        "city" : {
          "type" : "string"
        },
        "address1" : {
          "type" : "string"
        },
        "locationDescription" : {
          "type" : "string"
        },
        "timeZone" : {
          "$ref" : "#/definitions/timeZone"
        },
        "locationStatus" : {
          "type" : "string"
        },
        "ehrLocationId" : {
          "type" : "string"
        },
        "client" : {
          "$ref" : "#/definitions/client"
        },
        "shortLocationName" : {
          "type" : "string"
        },
        "state" : {
          "type" : "string"
        },
        "ehrLocationName" : {
          "type" : "string"
        }
      }
    },
    "client" : {
      "x-WM-FULLY_QUALIFIED_NAME" : "createLocation.client",
      "x-WM-TAGS" : [ "RestServiceVirtualController" ],
      "required" : [ "id" ],
      "properties" : {
        "id" : {
          "format" : "int32",
          "type" : "integer"
        }
      }
    },
    "timeZone" : {
      "x-WM-FULLY_QUALIFIED_NAME" : "createLocation.timeZone",
      "x-WM-TAGS" : [ "RestServiceVirtualController" ],
      "required" : [ "id" ],
      "properties" : {
        "id" : {
          "format" : "int32",
          "type" : "integer"
        }
      }
    },
    "RootResponse" : {
      "x-WM-FULLY_QUALIFIED_NAME" : "createLocation.RootResponse",
      "x-WM-TAGS" : [ "RestServiceVirtualController" ],
      "required" : [ "address1", "address2", "city", "client", "clientId", "ehrLocationId", "ehrLocationName", "id", "locationDescription", "locationName", "locationStatus", "parentLocationId", "parentLocationName", "shortLocationName", "state", "timeZone", "timeZoneId", "zip" ],
      "properties" : {
        "zip" : {
          "type" : "string"
        },
        "parentLocationId" : {
          "type" : "string"
        },
        "clientId" : {
          "type" : "string"
        },
        "locationName" : {
          "type" : "string"
        },
        "address2" : {
          "type" : "string"
        },
        "city" : {
          "type" : "string"
        },
        "timeZoneId" : {
          "type" : "string"
        },
        "address1" : {
          "type" : "string"
        },
        "locationDescription" : {
          "type" : "string"
        },
        "timeZone" : {
          "$ref" : "#/definitions/timeZone"
        },
        "locationStatus" : {
          "type" : "string"
        },
        "ehrLocationId" : {
          "type" : "string"
        },
        "client" : {
          "$ref" : "#/definitions/client"
        },
        "shortLocationName" : {
          "type" : "string"
        },
        "parentLocationName" : {
          "type" : "string"
        },
        "id" : {
          "format" : "int32",
          "type" : "integer"
        },
        "state" : {
          "type" : "string"
        },
        "ehrLocationName" : {
          "type" : "string"
        }
      }
    }
  },
  "swagger" : "2.0",
  "info" : {
    "x-WM-USE_PROXY_FOR_WEB" : true,
    "x-WM-USE_PROXY_FOR_MOBILE" : true,
    "x-WM-API_ID" : "c637ba23-dfaa-44a5-8e41-4224e545fb95",
    "x-WM-SERVICE_ID" : "healthipass",
    "version" : "2.0",
    "x-WM-SERVICE_TYPE" : "RestService"
  },
  "tags" : [ {
    "name" : "RestServiceVirtualController",
    "description" : "Rest service swagger documentation"
  } ]
}