{
  "endpointAddress" : "http://dev-hipx-services.healthipass.internal:8080/assets/{id}",
  "method" : "PATCH",
  "headers" : { },
  "redirectEnabled" : true,
  "requestBody" : "{\n\"id\": 1,\n\"assetUdid\": \"02890E4B-6728-4C40-8F83-F1DFE780F5C0\",\n\"assetSerialNumber\": \"02890E4\",\n\"inUse\": \"yes\"\n}",
  "queryParams" : { },
  "authDetails" : null,
  "contentType" : "application/json",
  "multiParamInfoList" : null,
  "sampleHttpResponseDetails" : {
    "statusCode" : 200,
    "headers" : {
      "Date" : [ "Thu, 11 Oct 2018 07:54:15 GMT" ],
      "Content-Type" : [ "application/json" ],
      "Transfer-Encoding" : [ "chunked" ],
      "Connection" : [ "keep-alive" ]
    },
    "responseBody" : "{\"id\":1,\"assetUdid\":\"02890E4B-6728-4C40-8F83-F1DFE780F5C0\",\"assetSerialNumber\":\"02890E4\",\"inUse\":\"yes\"}",
    "convertedResponse" : null
  },
  "proxy" : null
}