{
  "swagger" : "2.0",
  "info" : {
    "version" : "2.0",
    "x-WM-USE_PROXY_FOR_WEB" : true,
    "x-WM-USE_PROXY_FOR_MOBILE" : true,
    "x-WM-API_ID" : "a5b08685-246c-493e-ba55-bbb247418d79",
    "x-WM-SERVICE_ID" : "healthipass",
    "x-WM-SERVICE_TYPE" : "RestService"
  },
  "host" : "dev-hipx-services.healthipass.internal:8080",
  "basePath" : "",
  "tags" : [ {
    "name" : "RestServiceVirtualController",
    "description" : "Rest service swagger documentation"
  } ],
  "schemes" : [ "http" ],
  "paths" : {
    "/editContact/invoke/clientLocation/{locationId}/clientLocationContacts/{id}" : {
      "patch" : {
        "tags" : [ "RestServiceVirtualController" ],
        "operationId" : "editContact_RestServiceVirtualController-invoke",
        "consumes" : [ "application/json" ],
        "produces" : [ "application/json" ],
        "parameters" : [ {
          "in" : "body",
          "name" : "RequestBody",
          "description" : "RequestBody",
          "required" : false,
          "schema" : {
            "$ref" : "#/definitions/RootRequest"
          },
          "x-WM-FULLY_QUALIFIED_TYPE" : "java.lang.Object"
        }, {
          "name" : "locationId",
          "in" : "path",
          "required" : true,
          "type" : "string"
        }, {
          "name" : "id",
          "in" : "path",
          "required" : true,
          "type" : "string"
        } ],
        "responses" : {
          "200" : {
            "description" : "Success",
            "schema" : {
              "$ref" : "#/definitions/RootResponse"
            }
          }
        },
        "x-WM-METHOD_NAME" : "invoke",
        "x-WM-ACCESS_SPECIFIER" : "APP_ONLY"
      },
      "x-WM-BASE_PATH" : "/editContact/invoke/clientLocation/{locationId}/clientLocationContacts/{id}",
      "x-WM-TAG" : "RestServiceVirtualController",
      "x-WM-RELATIVE_PATH" : "",
      "x-WM-COMPLETE_PATH" : "${rest.editContact.scheme}://${rest.editContact.host}${rest.editContact.basepath}/clientLocation/{locationId}/clientLocationContacts/{id}"
    }
  },
  "definitions" : {
    "RootRequest" : {
      "required" : [ "clientLocationId", "contactType", "description", "emailId", "firstName", "id", "lastName", "phoneCell", "phoneHome", "phoneWork", "status", "title" ],
      "properties" : {
        "firstName" : {
          "type" : "string"
        },
        "lastName" : {
          "type" : "string"
        },
        "phoneCell" : {
          "type" : "string"
        },
        "phoneWork" : {
          "type" : "string"
        },
        "phoneHome" : {
          "type" : "string"
        },
        "description" : {
          "type" : "string"
        },
        "contactType" : {
          "$ref" : "#/definitions/contactType"
        },
        "clientLocationId" : {
          "type" : "integer",
          "format" : "int32"
        },
        "emailId" : {
          "type" : "string"
        },
        "id" : {
          "type" : "integer",
          "format" : "int32"
        },
        "title" : {
          "type" : "string"
        },
        "status" : {
          "type" : "string"
        }
      },
      "x-WM-FULLY_QUALIFIED_NAME" : "editContact.RootRequest",
      "x-WM-TAGS" : [ "RestServiceVirtualController" ]
    },
    "contactType" : {
      "required" : [ "id", "type" ],
      "properties" : {
        "id" : {
          "type" : "integer",
          "format" : "int32"
        },
        "type" : {
          "type" : "string"
        }
      },
      "x-WM-FULLY_QUALIFIED_NAME" : "editContact.contactType",
      "x-WM-TAGS" : [ "RestServiceVirtualController" ]
    },
    "RootResponse" : {
      "required" : [ "clientLocationId", "contactType", "description", "emailId", "firstName", "id", "lastName", "phoneCell", "phoneHome", "phoneWork", "status", "title" ],
      "properties" : {
        "firstName" : {
          "type" : "string"
        },
        "lastName" : {
          "type" : "string"
        },
        "phoneCell" : {
          "type" : "string"
        },
        "phoneWork" : {
          "type" : "string"
        },
        "phoneHome" : {
          "type" : "string"
        },
        "description" : {
          "type" : "string"
        },
        "contactType" : {
          "$ref" : "#/definitions/contactType"
        },
        "clientLocationId" : {
          "type" : "integer",
          "format" : "int32"
        },
        "emailId" : {
          "type" : "string"
        },
        "id" : {
          "type" : "integer",
          "format" : "int32"
        },
        "title" : {
          "type" : "string"
        },
        "status" : {
          "type" : "string"
        }
      },
      "x-WM-FULLY_QUALIFIED_NAME" : "editContact.RootResponse",
      "x-WM-TAGS" : [ "RestServiceVirtualController" ]
    }
  }
}