{
  "clientDetailsById" : {
    "_id" : "wm-clientDetailsById-wm.ServiceVariable-1538632426893",
    "name" : "clientDetailsById",
    "owner" : "Page",
    "category" : "wm.ServiceVariable",
    "dataBinding" : [ {
      "target" : "id",
      "value" : "bind:pageParams.clientId",
      "type" : "string"
    } ],
    "type" : "clientDetailsByID.RootResponse",
    "service" : "clientDetailsByID",
    "operation" : "invoke",
    "operationId" : "clientDetailsByID_RestServiceVirtualController-invoke",
    "operationType" : "get",
    "serviceType" : "RestService",
    "dataSet" : [ ],
    "isList" : false,
    "maxResults" : 20,
    "startUpdate" : false,
    "autoUpdate" : true,
    "inFlightBehavior" : "executeLast",
    "transformationRequired" : false,
    "saveInPhonegap" : false,
    "controller" : "RestServiceVirtual"
  },
  "createLoc" : {
    "_id" : "wm-createLoc-wm.ServiceVariable-1534760276092",
    "name" : "createLoc",
    "owner" : "Page",
    "category" : "wm.ServiceVariable",
    "dataBinding" : [ {
      "target" : "clientId",
      "value" : "bind:pageParams.clientId",
      "type" : "string"
    } ],
    "type" : "createLocation.RootResponse",
    "service" : "createLocation",
    "operation" : "invoke",
    "operationId" : "createLocation_RestServiceVirtualController-invoke",
    "operationType" : "post",
    "serviceType" : "RestService",
    "dataSet" : [ ],
    "isList" : false,
    "maxResults" : 20,
    "onSuccess" : "Widgets.managelocation.close();Variables.locationList.invoke()",
    "startUpdate" : false,
    "autoUpdate" : false,
    "inFlightBehavior" : "executeLast",
    "transformationRequired" : false,
    "saveInPhonegap" : false,
    "controller" : "RestServiceVirtual"
  },
  "editLocation" : {
    "_id" : "wm-editLocation-wm.ServiceVariable-1534841543822",
    "name" : "editLocation",
    "owner" : "Page",
    "category" : "wm.ServiceVariable",
    "dataBinding" : [ {
      "target" : "clientid",
      "value" : "bind:pageParams.clientId",
      "type" : "string"
    }, {
      "target" : "locationId",
      "value" : "bind:Widgets.locationListTable.selecteditem.id | stringToNumber",
      "type" : "string"
    } ],
    "type" : "editLocation.RootResponse",
    "service" : "editLocation",
    "operation" : "invoke",
    "operationId" : "editLocation_RestServiceVirtualController-invoke",
    "operationType" : "patch",
    "serviceType" : "RestService",
    "dataSet" : [ ],
    "isList" : false,
    "maxResults" : 20,
    "onSuccess" : "Widgets.managelocation.close();Variables.locationList.invoke()",
    "startUpdate" : false,
    "autoUpdate" : false,
    "inFlightBehavior" : "executeLast",
    "transformationRequired" : false,
    "saveInPhonegap" : false,
    "controller" : "RestServiceVirtual"
  },
  "locationList" : {
    "_id" : "wm-locationList-wm.ServiceVariable-1535005420350",
    "name" : "locationList",
    "owner" : "Page",
    "category" : "wm.ServiceVariable",
    "dataBinding" : [ {
      "target" : "clientId",
      "value" : "bind:pageParams.clientId",
      "type" : "string"
    }, {
      "target" : "sort",
      "value" : "id",
      "type" : "string"
    } ],
    "type" : "locationList.RootResponseROOTEntryItem",
    "service" : "locationList",
    "operation" : "invoke",
    "operationId" : "locationList_RestServiceVirtualController-invoke",
    "operationType" : "get",
    "serviceType" : "RestService",
    "dataSet" : [ ],
    "isList" : true,
    "maxResults" : 20,
    "startUpdate" : false,
    "autoUpdate" : false,
    "inFlightBehavior" : "executeLast",
    "transformationRequired" : false,
    "saveInPhonegap" : false,
    "controller" : "RestServiceVirtual",
    "spinnerContext" : "locationListTable"
  },
  "locationStatus" : {
    "_id" : "wm-locStatus-wm.Variable-1534601330109",
    "name" : "locationStatus",
    "owner" : "Page",
    "category" : "wm.Variable",
    "dataBinding" : [ ],
    "dataSet" : [ {
      "dataValue" : "active",
      "key" : "Active"
    }, {
      "dataValue" : "inactive",
      "key" : "Inactive"
    }, {
      "dataValue" : "hold",
      "key" : "Hold"
    } ],
    "type" : "string",
    "isList" : true,
    "saveInPhonegap" : false
  },
  "ngLocationConfig" : {
    "_id" : "wm-ngLocationConfig-wm.NavigationVariable-1535114638085",
    "name" : "ngLocationConfig",
    "owner" : "Page",
    "category" : "wm.NavigationVariable",
    "dataBinding" : [ {
      "target" : "pageName",
      "value" : "SettingsClientLocationConfig",
      "type" : "string"
    } ],
    "operation" : "gotoPage",
    "dataSet" : [ {
      "type" : "string",
      "target" : "locationId",
      "value" : "bind:Widgets.locationListTable.selecteditem.id | stringToNumber"
    }, {
      "type" : "string",
      "target" : "clientId",
      "value" : "bind:Widgets.locationListTable.selecteditem.clientId | numberToString"
    } ],
    "pageTransitions" : "none"
  },
  "ngLocationContacts" : {
    "_id" : "wm-ngLocationContacts-wm.NavigationVariable-1534845584735",
    "name" : "ngLocationContacts",
    "owner" : "Page",
    "category" : "wm.NavigationVariable",
    "dataBinding" : [ {
      "target" : "pageName",
      "value" : "SettingsClientLocationContacts",
      "type" : "string"
    } ],
    "operation" : "gotoPage",
    "dataSet" : [ {
      "type" : "string",
      "target" : "locationId",
      "value" : "bind:Widgets.locationListTable.selecteditem.id | stringToNumber"
    }, {
      "type" : "string",
      "target" : "clientId",
      "value" : "bind:pageParams.clientId"
    } ],
    "pageTransitions" : "none"
  },
  "ngLocationIntegration" : {
    "_id" : "wm-ngLocationIntegration-wm.NavigationVariable-1536756704485",
    "name" : "ngLocationIntegration",
    "owner" : "Page",
    "category" : "wm.NavigationVariable",
    "dataBinding" : [ {
      "target" : "pageName",
      "value" : "LocationIntegration",
      "type" : "string"
    } ],
    "operation" : "gotoPage",
    "dataSet" : [ {
      "type" : "string",
      "target" : "locationId",
      "value" : "bind:Widgets.locationListTable.selecteditem.id  | numberToString"
    } ],
    "pageTransitions" : "none"
  },
  "ngLocationIntegrationConfiguration" : {
    "_id" : "wm-ngLocationIntegrationConfiguration-wm.NavigationVariable-1535703157054",
    "name" : "ngLocationIntegrationConfiguration",
    "owner" : "Page",
    "category" : "wm.NavigationVariable",
    "dataBinding" : [ {
      "target" : "pageName",
      "value" : "LocationIntegrationConfiguration",
      "type" : "string"
    } ],
    "operation" : "gotoPage",
    "dataSet" : [ {
      "type" : "string",
      "target" : "locationId",
      "value" : "bind:Widgets.locationListTable.selecteditem.id | numberToString"
    }, {
      "type" : "string",
      "target" : "clientId",
      "value" : "bind:pageParams.clientId"
    } ],
    "pageTransitions" : "none"
  },
  "ngParentLocationCheck" : {
    "_id" : "wm-ngParentLocationCheck-wm.NotificationVariable-1535530419531",
    "name" : "ngParentLocationCheck",
    "owner" : "Page",
    "category" : "wm.NotificationVariable",
    "dataBinding" : [ {
      "target" : "text",
      "value" : "bind:appLocale.LABEL_PARENT_CHECK_ERROR",
      "type" : "string"
    }, {
      "target" : "title",
      "value" : "bind:appLocale.LABEL_ERROR",
      "type" : "string"
    }, {
      "target" : "alerttype",
      "value" : "error",
      "type" : "string"
    } ],
    "operation" : "alert"
  },
  "ngSettingsClientLocationAssets" : {
    "_id" : "wm-ngSettingsClientLocationAssets-wm.NavigationVariable-1535369103739",
    "name" : "ngSettingsClientLocationAssets",
    "owner" : "Page",
    "category" : "wm.NavigationVariable",
    "dataBinding" : [ {
      "target" : "pageName",
      "value" : "SettingsClientLocationAssets",
      "type" : "string"
    } ],
    "operation" : "gotoPage",
    "dataSet" : [ {
      "type" : "string",
      "target" : "locationId",
      "value" : "bind:Widgets.locationListTable.selecteditem.id | stringToNumber"
    }, {
      "type" : "string",
      "target" : "clientId",
      "value" : "bind:pageParams.clientId"
    } ],
    "pageTransitions" : "none"
  },
  "parentlocationList" : {
    "_id" : "wm-parentlocationList-wm.ServiceVariable-1535017318421",
    "name" : "parentlocationList",
    "owner" : "Page",
    "category" : "wm.ServiceVariable",
    "dataBinding" : [ {
      "target" : "clientId",
      "value" : "bind:pageParams.clientId",
      "type" : "string"
    } ],
    "type" : "locationList.RootResponseROOTEntryItem",
    "service" : "locationList",
    "operation" : "invoke",
    "operationId" : "locationList_RestServiceVirtualController-invoke",
    "operationType" : "get",
    "serviceType" : "RestService",
    "dataSet" : [ ],
    "isList" : true,
    "maxResults" : 20,
    "startUpdate" : false,
    "autoUpdate" : false,
    "inFlightBehavior" : "executeLast",
    "transformationRequired" : false,
    "saveInPhonegap" : false,
    "controller" : "RestServiceVirtual"
  },
  "stateList" : {
    "_id" : "wm-stateList-wm.ServiceVariable-1539247596831",
    "name" : "stateList",
    "owner" : "Page",
    "category" : "wm.ServiceVariable",
    "dataBinding" : [ ],
    "type" : "stateList.RootResponseROOTEntryItem",
    "service" : "stateList",
    "operation" : "invoke",
    "operationId" : "stateList_RestServiceVirtualController-invoke",
    "operationType" : "get",
    "serviceType" : "RestService",
    "dataSet" : [ ],
    "isList" : true,
    "maxResults" : 20,
    "startUpdate" : false,
    "autoUpdate" : true,
    "inFlightBehavior" : "executeLast",
    "transformationRequired" : false,
    "saveInPhonegap" : false,
    "controller" : "RestServiceVirtual"
  },
  "stvBreadcrumb" : {
    "_id" : "wm-stvBreadcrumb-wm.Variable-1534495384835",
    "name" : "stvBreadcrumb",
    "owner" : "Page",
    "category" : "wm.Variable",
    "dataBinding" : [ ],
    "dataSet" : [ {
      "page" : "",
      "label" : "Main",
      "icon" : "",
      "link" : "/Main",
      "role" : "",
      "type" : ""
    }, {
      "page" : "Clients",
      "label" : "Client Details",
      "icon" : "",
      "link" : "/Clients",
      "role" : "",
      "type" : ""
    }, {
      "page" : "SettingsClientLocations",
      "label" : "Locations",
      "icon" : "",
      "link" : "/SettingsClientLocations",
      "role" : "",
      "type" : ""
    } ],
    "type" : "entry",
    "isList" : true,
    "saveInPhonegap" : false
  },
  "stvClient" : {
    "_id" : "wm-stvClient-wm.Variable-1539682440319",
    "name" : "stvClient",
    "owner" : "Page",
    "category" : "wm.Variable",
    "dataBinding" : [ {
      "target" : "id",
      "value" : "bind:pageParams.clientId | stringToNumber"
    } ],
    "dataSet" : {
      "id" : ""
    },
    "type" : "entry",
    "isList" : false,
    "saveInPhonegap" : false
  },
  "stvEditLocation" : {
    "_id" : "wm-stvEditLocation-wm.Variable-1534841119656",
    "name" : "stvEditLocation",
    "owner" : "Page",
    "category" : "wm.Variable",
    "dataBinding" : [ ],
    "dataSet" : {
      "id" : "",
      "parentLocationName" : "",
      "locationName" : "",
      "locationDescription" : "",
      "shortLocationName" : "",
      "ehrLocationId" : "",
      "ehrLocationName" : "",
      "address1" : "",
      "address2" : "",
      "city" : "",
      "state" : "",
      "zip" : "",
      "locationStatus" : "",
      "client" : {
        "id" : null
      }
    },
    "type" : "string",
    "isList" : false,
    "saveInPhonegap" : false
  },
  "stvManageLocation" : {
    "_id" : "wm-stvManageLocation-wm.Variable-1534598672341",
    "name" : "stvManageLocation",
    "owner" : "Page",
    "category" : "wm.Variable",
    "dataBinding" : [ {
      "target" : "parentLocationId",
      "value" : "bind:Widgets.locationForm.formWidgets.parentLocation.datavalue"
    }, {
      "target" : "locationName",
      "value" : "bind:Widgets.locationForm.formWidgets.locationName.datavalue"
    }, {
      "target" : "locationDescription",
      "value" : "bind:Widgets.locationForm.formWidgets.locationDescription.datavalue"
    }, {
      "target" : "locationLabel",
      "value" : "bind:Widgets.locationForm.formWidgets.locationLabel.datavalue"
    }, {
      "target" : "shortLocationName",
      "value" : "bind:Widgets.locationForm.formWidgets.shortLocationName.datavalue"
    }, {
      "target" : "address1",
      "value" : "bind:Widgets.locationForm.formWidgets.address1.datavalue"
    }, {
      "target" : "address2",
      "value" : "bind:Widgets.locationForm.formWidgets.address2.datavalue"
    }, {
      "target" : "city",
      "value" : "bind:Widgets.locationForm.formWidgets.city.datavalue"
    }, {
      "target" : "zip",
      "value" : "bind:Widgets.locationForm.formWidgets.zip.datavalue"
    }, {
      "target" : "locationStatus",
      "value" : "bind:Widgets.locationForm.formWidgets.locStatus.datavalue"
    }, {
      "target" : "ehrLocationId",
      "value" : "bind:Widgets.locationForm.formWidgets.ehrLocationId.datavalue"
    }, {
      "target" : "ehrLocationName",
      "value" : "bind:Widgets.locationForm.formWidgets.ehrLocationName.datavalue"
    }, {
      "target" : "state",
      "value" : "bind:Widgets.locationForm.formWidgets.state.datavalue"
    }, {
      "target" : "timeZone",
      "value" : "bind:Variables.stvTimeZone.dataSet"
    }, {
      "target" : "client",
      "value" : "bind:Variables.stvClient.dataSet"
    } ],
    "dataSet" : {
      "id" : "",
      "parentLocationName" : "",
      "locationName" : "",
      "locationDescription" : "",
      "shortLocationName" : "",
      "ehrLocationId" : "",
      "ehrLocationName" : "",
      "address1" : "",
      "address2" : "",
      "city" : "",
      "state" : "",
      "zip" : "",
      "locationStatus" : "",
      "client" : {
        "id" : null
      }
    },
    "type" : "string",
    "isList" : false,
    "saveInPhonegap" : false
  },
  "stvTimeZone" : {
    "_id" : "wm-stvTimeZone-wm.Variable-1539680621929",
    "name" : "stvTimeZone",
    "owner" : "Page",
    "category" : "wm.Variable",
    "dataBinding" : [ {
      "target" : "id",
      "value" : "bind:Widgets.locationForm.formWidgets.timezone.datavalue.id"
    }, {
      "target" : "timezoneName",
      "value" : "bind:Widgets.locationForm.formWidgets.timezone.datavalue.timezoneName"
    }, {
      "target" : "gmtOffset",
      "value" : "bind:Widgets.locationForm.formWidgets.timezone.datavalue.gmtOffset"
    } ],
    "dataSet" : {
      "id" : "",
      "timezoneName" : "",
      "gmtOffset" : ""
    },
    "type" : "entry",
    "isList" : false,
    "saveInPhonegap" : false
  },
  "timeZoneList" : {
    "_id" : "wm-timeZoneList-wm.ServiceVariable-1539247364135",
    "name" : "timeZoneList",
    "owner" : "Page",
    "category" : "wm.ServiceVariable",
    "dataBinding" : [ ],
    "type" : "timeZoneList.RootResponseROOTEntryItem",
    "service" : "timeZoneList",
    "operation" : "invoke",
    "operationId" : "timeZoneList_RestServiceVirtualController-invoke",
    "operationType" : "get",
    "serviceType" : "RestService",
    "dataSet" : [ ],
    "isList" : true,
    "maxResults" : 20,
    "startUpdate" : false,
    "autoUpdate" : true,
    "inFlightBehavior" : "executeLast",
    "transformationRequired" : false,
    "saveInPhonegap" : false,
    "controller" : "RestServiceVirtual"
  }
}